ISO3,item,Y1995,Y1996,Y1997,Y1998,Y1999,Y2000,Y2001,Y2002,Y2003,Y2004,Y2005,Y2006,Y2007,Y2008,Y2009,Y2010,Y2011,Y2012,Y2013,Y2014,Y2015,Y2016,Y2017,Y2018,min_value,max_value,mean_value,std_dev,var
AFG,6610,100.0,100.0,100.0,100.0,100.0,100.0,100.0,100.0,100.0,100.0,100.0,100.0,100.0,100.0,100.0,100.0,100.0,100.0,100.0,100.0,100.0,100.0,100.0,100.0,100.0,100.0,100.0,0.0,0.0
AFG,6649,,,,,,,,,,,,,,,,,,,,,,,,,,,,,
ALB,6610,100.0,100.0,100.0,100.0,100.0,100.0,100.0,100.0,100.0,100.0,100.0,100.0,100.0,100.0,100.0,100.0,100.0,100.0,99.91508942539356,99.90768903541424,99.89417665353231,99.88166680753952,99.86504504335215,99.82994368585157,99.82994368585157,100.0,99.9705671104618,0.054082608144839325,0.0029249285037482413
ALB,6649,,,,,,,,,,,,,,,,,,,0.08491057460643654,0.0923109645857705,0.10582334646767794,0.11833319246048518,0.13495495664785553,0.17005631414843025,0.08491057460643654,0.17005631414843025,0.11773155815277599,0.03130532399880362,0.00098002331067007
DZA,6610,100.0,100.0,100.0,100.0,100.0,100.0,100.0,100.0,100.0,100.0,100.0,100.0,100.0,100.0,100.0,100.0,100.0,100.0,100.0,100.0,100.0,100.0,100.0,100.0,100.0,100.0,100.0,0.0,0.0
DZA,6649,,,,,,,,,,,,,,,,,,,,,,,,,,,,,
AGO,6610,100.0,100.0,100.0,100.0,100.0,100.0,99.99999999999999,100.0,100.0,99.99999999999999,100.0,100.00000000000001,100.0,100.0,99.99999999999999,100.0,100.00000000000001,100.0,100.00000000000001,100.0,100.0,100.0,100.0,100.0,99.99999999999999,100.00000000000001,100.0,0.0,5.268218914867279e-29
AGO,6649,,,,,,,,,,,,,,,,,,,,,,,,,,,,,
ATG,6610,100.0,100.0,100.0,100.0,100.0,100.0,100.0,100.0,100.0,100.0,100.0,100.0,100.0,100.0,100.0,100.0,100.0,100.0,100.0,100.0,100.0,100.0,100.0,100.0,100.0,100.0,100.0,0.0,0.0
ATG,6649,,,,,,,,,,,,,,,,,,,,,,,,,,,,,
ARG,6610,100.0,100.0,100.0,100.0,100.0,100.0,100.0,100.0,100.0,100.0,100.0,100.0,100.0,100.0,100.0,100.0,100.0,100.0,100.0,100.0,100.0,100.0,100.0,100.0,100.0,100.0,100.0,0.0,0.0
ARG,6649,,,,,,,,,,,,,,,,,,,,,,,,,,,,,
ARM,6610,100.0,100.0,100.0,100.0,100.0,100.0,100.0,100.0,100.0,100.0,100.0,100.0,100.0,100.0,100.0,100.0,100.0,100.0,82.05753291077524,82.00936859568654,81.96216454025517,81.97506722072843,82.00900283785106,82.03961848862802,81.96216454025517,100.0,95.50219810808021,7.957994644849359,63.32967876745107
ARM,6649,,,,,,,,,,,,,,,,,,,38.81033642125792,38.918707914511565,39.16996627071418,39.18357369836226,39.299344358547806,39.251650770359504,38.81033642125792,39.299344358547806,39.10559657229221,0.19555042874560283,0.03823997018258909
AUS,6610,100.0,100.0,100.0,100.0,100.0,100.0,100.0,100.0,100.0,89.72893140351276,92.15566023960517,94.10863942058975,93.63178665362946,93.29000594313759,93.94370570301861,94.42822018164483,96.69209022033692,95.46259439569492,93.73692845434859,92.16135122295819,95.13709542978796,92.3261416737182,94.42352277950314,94.92517496204528,89.72893140351276,100.0,96.0896603618138,3.3599157508785913,11.289033853002048
AUS,6649,,,,,,,,,,,,,,,,,,,0.017649344339464464,0.019937529075563235,0.027602189591514923,0.03853637240687942,0.02793317369101339,0.029094217656487217,0.017649344339464464,0.03853637240687942,0.026792137793487106,0.007426454039495856,5.515221960074432e-05
AUT,6610,100.0,100.0,100.0,100.0,100.0,100.0,100.0,100.0,100.0,100.0,100.0,100.0,100.0,100.0,100.0,100.0,100.0,100.0,100.0,100.0,100.0,100.0,100.0,100.0,100.0,100.0,100.0,0.0,0.0
AUT,6649,,,,,,,,,,,,,,,,,,,,,,,,,,,,,
AZE,6610,100.0,100.0,100.0,100.0,100.0,100.0,100.0,100.0,100.0,100.0,100.0,100.0,100.0,100.0,100.0,100.0,100.0,100.0,100.0,100.0,100.0,100.0,100.0,100.0,100.0,100.0,100.0,0.0,0.0
AZE,6649,,,,,,,,,,,,,,,,,,,,,,,,,,,,,
BHS,6610,100.0,100.0,100.0,100.0,100.0,100.0,100.0,100.0,100.0,100.0,100.0,100.0,100.0,100.0,100.0,100.0,100.0,100.0,100.0,100.0,100.0,100.0,100.0,100.0,100.0,100.0,100.0,0.0,0.0
BHS,6649,,,,,,,,,,,,,,,,,,,,,,,,,,,,,
BHR,6610,100.0,100.0,100.0,100.0,100.0,100.0,100.0,100.0,100.0,100.0,100.0,100.0,100.0,100.0,100.0,100.0,100.0,100.0,100.0,100.0,100.0,100.0,100.0,100.0,100.0,100.0,100.0,0.0,0.0
BHR,6649,,,,,,,,,,,,,,,,,,,,,,,,,,,,,
BGD,6610,100.0,100.0,100.0,100.0,100.0,100.0,100.0,100.0,100.0,100.0,100.0,100.0,100.0,100.0,100.0,100.0,100.0,100.0,100.0,100.0,100.0,100.0,100.0,100.0,100.0,100.0,100.0,0.0,0.0
BGD,6649,,,,,,,,,,,,,,,,,,,,,,,,,,,,,
BRB,6610,100.0,100.0,100.0,100.0,100.0,100.0,100.0,100.0,100.0,100.0,100.0,100.0,100.0,100.0,100.0,100.0,100.0,100.0,100.0,100.0,100.0,100.0,100.0,100.0,100.0,100.0,100.0,0.0,0.0
BRB,6649,,,,,,,,,,,,,,,,,,,,,,,,,,,,,
BLR,6610,100.0,100.0,100.0,100.0,100.0,100.0,100.0,100.0,100.0,100.0,100.0,100.0,100.0,100.0,100.0,100.0,100.0,100.0,99.82581591492485,99.9026910556862,99.91027627914566,99.91218004262196,99.90590449306046,99.91725768321513,99.82581591492485,100.0,99.97392189452727,0.04887893229227928,0.0023891500220332216
BLR,6649,,,,,,,,,,,,,,,,,,,,,,,,,,,,,
BEL,6610,100.0,100.0,100.0,100.0,100.0,100.0,100.0,100.0,100.0,100.0,100.0,100.0,100.0,100.0,100.0,100.0,100.0,100.0,100.0,100.0,100.0,100.0,100.0,100.0,100.0,100.0,100.0,0.0,0.0
BEL,6649,,,,,,,,,,,,,,,,,,,,,,,,,,,,,
BLZ,6610,100.0,100.0,100.0,100.0,100.0,100.0,100.0,100.0,100.0,100.0,100.0,100.0,100.0,100.0,100.0,100.0,100.0,100.0,100.0,100.0,100.0,100.0,100.0,100.0,100.0,100.0,100.0,0.0,0.0
BLZ,6649,,,,,,,,,,,,,,,,,,,,,,,,,,,,,
BEN,6610,100.0,100.0,100.0,100.0,100.0,100.0,100.0,100.0,100.0,100.0,100.0,100.0,100.0,100.0,100.0,100.0,100.0,100.0,100.0,100.0,100.0,100.0,100.0,100.0,100.0,100.0,100.0,0.0,0.0
BEN,6649,,,,,,,,,,,,,,,,,,,,,,,,,,,,,
BTN,6610,100.0,100.0,100.0,100.0,100.0,100.0,100.0,100.0,100.0,100.0,100.0,100.0,100.0,100.0,100.0,100.0,100.0,100.0,100.0,100.0,100.0,100.0,100.0,100.0,100.0,100.0,100.0,0.0,0.0
BTN,6649,,,,,,,,,,,,,,,,,,,,,,,,,,,,,
BOL,6610,100.0,100.0,100.0,100.0,100.0,100.0,100.0,100.0,100.0,100.0,100.0,100.0,100.0,100.0,100.0,100.0,100.0,100.0,100.0,100.0,100.0,100.0,100.0,100.0,100.0,100.0,100.0,0.0,0.0
BOL,6649,,,,,,,,,,,,,,,,,,,,,,,,,,,,,
BIH,6610,100.0,100.0,100.0,100.0,100.0,100.0,100.0,100.0,100.0,100.0,100.0,100.0,100.0,100.0,100.0,100.0,100.0,100.0,100.0,100.0,100.0,100.0,100.0,100.0,100.0,100.0,100.0,0.0,0.0
BIH,6649,,,,,,,,,,,,,,,,,,,,,,,,,,,,,
BWA,6610,100.0,100.0,100.0,100.0,100.0,100.0,100.0,100.0,100.0,100.0,100.0,100.0,100.0,100.0,100.0,100.0,100.0,100.0,100.0,100.0,100.0,100.0,100.0,100.0,100.0,100.0,100.0,0.0,0.0
BWA,6649,,,,,,,,,,,,,,,,,,,,,,,,,,,,,
BRA,6610,100.0,100.0,100.0,100.0,100.0,100.0,100.0,100.0,100.0,100.0,100.0,100.0,100.0,100.0,100.0,100.0,100.0,100.0,100.0,100.0,100.0,100.0,100.0,100.0,100.0,100.0,100.0,0.0,0.0
BRA,6649,,,,,,,,,,,,,,,,,,,,,,,,,,,,,
BRN,6610,100.0,100.0,100.0,100.0,100.0,100.0,100.0,100.0,100.0,100.0,100.0,100.0,100.0,100.0,100.0,100.0,100.0,100.0,100.0,100.0,100.0,100.0,100.0,100.0,100.0,100.0,100.0,0.0,0.0
BRN,6649,,,,,,,,,,,,,,,,,,,,,,,,,,,,,
BGR,6610,100.0,100.0,100.0,100.0,100.0,100.0,100.0,100.0,100.0,100.0,100.0,100.0,100.0,100.0,100.0,100.0,100.0,100.0,100.0,100.0,100.0,100.0,100.0,100.0,100.0,100.0,100.0,0.0,0.0
BGR,6649,,,,,,,,,,,,,,,,,,,,,,,,,,,,,
BFA,6610,100.0,100.0,100.0,100.0,100.0,100.0,100.0,100.0,100.0,100.0,100.0,100.0,100.0,100.0,100.0,100.0,100.0,100.0,100.0,100.0,100.0,100.0,100.0,100.0,100.0,100.0,100.0,0.0,0.0
BFA,6649,,,,,,,,,,,,,,,,,,,,,,,,,,,,,
BDI,6610,100.0,100.0,100.0,100.0,100.0,100.0,100.0,100.0,100.0,100.0,100.0,100.0,100.0,100.0,100.0,100.0,100.0,100.0,100.0,100.0,100.0,100.0,100.0,100.0,100.0,100.0,100.0,0.0,0.0
BDI,6649,,,,,,,,,,,,,,,,,,,,,,,,,,,,,
CPV,6610,100.0,100.0,100.0,100.0,100.0,100.0,100.0,100.0,100.0,100.0,100.0,100.0,100.0,100.0,100.0,100.0,100.0,100.0,100.0,100.0,100.0,100.0,100.0,100.0,100.0,100.0,100.0,0.0,0.0
CPV,6649,,,,,,,,,,,,,,,,,,,,,,,,,,,,,
KHM,6610,100.0,100.0,100.0,100.0,100.0,100.0,100.0,100.0,100.0,100.0,100.0,100.0,100.0,100.0,100.0,100.0,100.0,100.0,100.0,100.0,100.0,100.0,100.0,100.0,100.0,100.0,100.0,0.0,0.0
KHM,6649,,,,,,,,,,,,,,,,,,,,,,,,,,,,,
CMR,6610,100.0,100.0,100.0,100.0,100.0,100.0,100.0,100.0,100.0,100.0,100.0,100.0,100.0,100.0,100.0,100.0,100.0,100.0,100.0,100.0,100.0,100.0,100.0,100.0,100.0,100.0,100.0,0.0,0.0
CMR,6649,,,,,,,,,,,,,,,,,,,,,,,,,,,,,
CAN,6610,100.0,100.0,100.0,100.0,100.0,100.0,100.0,100.0,100.0,100.0,100.0,100.0,100.0,100.0,100.0,100.0,100.0,100.0,96.73222289116329,96.94823891790546,97.16473683328586,97.38135579003875,97.38021314089116,97.38788487282463,96.73222289116329,100.0,99.29144385192122,1.2601727404600118,1.5880353357984962
CAN,6649,,,,,,,,,,,,,,,,,,,3.2677771088367114,3.0517610820945493,2.8352631667141446,2.6186442099612486,2.619786859108836,2.612115127175368,2.612115127175368,3.2677771088367114,2.834224592315143,0.27462048167888,0.07541640895754005
CAF,6610,100.0,100.0,100.0,100.0,100.0,100.0,100.0,100.0,100.0,100.0,100.0,100.0,100.0,100.0,100.0,100.0,100.0,100.0,100.0,100.0,100.0,100.0,100.0,100.0,100.0,100.0,100.0,0.0,0.0
CAF,6649,,,,,,,,,,,,,,,,,,,,,,,,,,,,,
TCD,6610,100.0,100.0,100.0,100.0,100.0,100.0,100.0,100.0,100.0,100.0,100.0,100.0,100.0,100.0,100.0,100.0,100.0,100.0,100.0,100.0,100.0,100.0,100.0,100.0,100.0,100.0,100.0,0.0,0.0
TCD,6649,,,,,,,,,,,,,,,,,,,,,,,,,,,,,
CHL,6610,100.0,100.0,100.0,100.0,100.0,100.0,100.0,100.0,100.0,100.0,100.0,100.0,100.0,100.0,100.0,100.0,100.0,100.0,100.0,100.0,100.0,100.0,100.0,100.0,100.0,100.0,100.0,0.0,0.0
CHL,6649,,,,,,,,,,,,,,,,,,,,,,,,,,,,,
CHN,6610,100.0,100.0,100.0,100.0,100.0,100.0,100.0,100.0,100.0,100.0,100.0,100.0,100.0,100.0,100.0,100.0,100.0,100.0,100.0,100.0,100.0,100.0,100.0,100.0,100.0,100.0,100.0,0.0,0.0
CHN,6649,,,,,,,,,,,,,,,,,,,,,,,,,,,,,
HKG,6610,100.0,100.0,100.0,100.0,100.0,100.0,100.0,100.0,100.0,100.0,100.0,100.0,100.0,100.0,100.0,100.0,100.0,100.0,100.0,100.0,100.0,100.0,100.0,100.0,100.0,100.0,100.0,0.0,0.0
HKG,6649,,,,,,,,,,,,,,,,,,,,,,,,,,,,,
MAC,6610,,,,,,,,,,,,,,,,,,,,,,,,,,,,,
MAC,6649,,,,,,,,,,,,,,,,,,,,,,,,,,,,,
TWN,6610,100.0,100.0,100.0,100.0,100.0,100.0,100.0,100.0,100.0,100.0,100.0,100.0,100.0,100.0,100.0,100.0,100.0,100.0,100.0,100.0,100.0,100.0,100.0,100.0,100.0,100.0,100.0,0.0,0.0
TWN,6649,,,,,,,,,,,,,,,,,,,,,,,,,,,,,
COL,6610,100.0,100.0,100.0,100.0,100.0,100.0,100.0,100.0,100.0,100.0,100.0,100.0,100.0,100.0,100.0,100.0,100.0,100.0,100.0,100.0,100.0,100.0,100.0,100.0,100.0,100.0,100.0,0.0,0.0
COL,6649,,,,,,,,,,,,,,,,,,,,,,,,,,,,,
COM,6610,100.0,100.0,100.0,100.0,100.0,100.0,100.0,100.0,100.0,100.0,100.0,100.0,100.0,100.0,100.0,100.0,100.0,100.0,100.0,100.0,100.0,100.0,100.0,100.0,100.0,100.0,100.0,0.0,0.0
COM,6649,,,,,,,,,,,,,,,,,,,,,,,,,,,,,
COG,6610,100.0,100.0,100.0,100.0,100.0,100.0,100.0,100.0,100.0,100.0,100.0,100.0,100.0,100.0,100.0,100.0,100.0,100.0,100.0,100.0,100.0,100.0,100.0,100.0,100.0,100.0,100.0,0.0,0.0
COG,6649,,,,,,,,,,,,,,,,,,,,,,,,,,,,,
COK,6610,100.0,100.0,100.0,100.0,100.0,100.0,100.0,100.0,100.0,100.0,99.99999999999999,100.0,100.0,100.0,100.0,100.0,100.0,100.0,100.0,100.0,100.0,100.0,100.0,100.0,99.99999999999999,100.0,100.0,0.0,8.780364858112131e-30
COK,6649,,,,,,,,,,,,,,,,,,,,,,,,,,,,,
CRI,6610,100.0,100.0,100.0,100.0,100.0,100.0,100.0,100.0,100.0,100.0,100.0,100.0,100.0,100.0,100.0,100.0,100.0,100.0,100.0,100.0,100.0,100.0,100.0,100.0,100.0,100.0,100.0,0.0,0.0
CRI,6649,,,,,,,,,,,,,,,,,,,,,,,,,,,,,
CIV,6610,100.0,100.0,100.0,100.0,100.0,100.0,100.0,100.0,100.0,100.0,100.0,100.0,100.0,100.0,100.0,100.0,100.0,100.0,100.0,100.0,100.0,100.0,100.0,100.0,100.0,100.0,100.0,0.0,0.0
CIV,6649,,,,,,,,,,,,,,,,,,,,,,,,,,,,,
HRV,6610,100.0,100.0,100.0,100.0,100.0,100.0,100.0,100.0,100.0,100.0,100.0,100.0,100.0,100.0,100.0,100.0,100.0,100.0,100.0,89.36611374407583,91.06635071090048,91.58767772511848,88.68483412322274,87.91469194312796,87.91469194312796,100.0,97.8591528436019,4.3125045940750395,18.59769587391832
HRV,6649,,,,,,,,,,,,,,,,,,,,,,,,,,,,,
CUB,6610,100.0,100.0,100.0,100.0,100.0,100.0,100.0,100.0,100.0,100.0,100.0,100.0,100.0,100.0,100.0,100.0,100.0,100.0,100.0,100.0,100.0,100.0,100.0,100.0,100.0,100.0,100.0,0.0,0.0
CUB,6649,,,,,,,,,,,,,,,,,,,,,,,,,,,,,
CYP,6610,100.0,100.0,100.0,100.0,100.0,100.0,100.0,100.0,100.0,100.0,100.0,100.0,100.0,100.0,100.0,100.0,100.0,100.0,99.63380023802983,99.63430243188883,99.60685642396602,99.72650196006929,99.71650356587925,99.69546316246279,99.60685642396602,100.0,99.91722615759568,0.14830590068818095,0.02199464017893259
CYP,6649,,,,,,,,,,,,,,,,,,,0.3661997619701547,0.3656975681111721,0.3931435760339676,0.2734980399307138,0.2834964341207505,0.30453683753721056,0.2734980399307138,0.3931435760339676,0.3310953696173282,0.05013596931600506,0.0025136154192554007
CZE,6610,100.0,100.0,100.0,100.0,100.0,100.0,100.0,100.0,100.0,100.0,100.0,100.0,100.0,100.0,100.0,100.0,100.0,100.0,100.0,100.0,100.0,100.0,100.0,100.0,100.0,100.0,100.0,0.0,0.0
CZE,6649,,,,,,,,,,,,,,,,,,,,,,,,,,,,,
PRK,6610,100.0,100.0,100.0,100.0,100.0,100.0,100.0,100.0,100.0,100.0,100.0,100.0,100.0,100.0,100.0,100.0,100.0,100.0,100.0,100.0,100.0,100.0,100.0,100.0,100.0,100.0,100.0,0.0,0.0
PRK,6649,,,,,,,,,,,,,,,,,,,,,,,,,,,,,
COD,6610,100.0,100.0,100.0,100.0,100.0,100.0,100.0,100.0,100.0,100.0,100.0,100.0,100.0,100.0,100.0,100.0,100.0,100.0,100.0,100.0,100.0,100.0,100.0,100.0,100.0,100.0,100.0,0.0,0.0
COD,6649,,,,,,,,,,,,,,,,,,,,,,,,,,,,,
DNK,6610,100.0,100.0,100.0,100.0,100.0,100.0,100.0,100.0,100.0,100.0,100.0,100.0,100.0,100.0,100.0,100.0,100.0,100.0,100.0,100.0,99.99999999999999,100.0,100.0,100.0,99.99999999999999,100.0,100.0,0.0,8.780364858112131e-30
DNK,6649,,,,,,,,,,,,,,,,,,,,,,,,,,,,,
DJI,6610,100.0,100.0,100.0,100.0,100.0,100.0,100.0,100.0,100.0,100.0,100.0,100.0,100.0,100.0,100.0,100.0,100.0,100.0,100.0,100.0,100.0,100.0,100.0,100.0,100.0,100.0,100.0,0.0,0.0
DJI,6649,,,,,,,,,,,,,,,,,,,,,,,,,,,,,
DMA,6610,100.0,100.0,100.0,100.0,100.0,100.0,100.0,100.0,100.0,100.0,100.0,100.0,100.0,100.0,100.0,100.0,100.0,100.0,100.0,100.0,100.0,100.0,100.0,100.0,100.0,100.0,100.0,0.0,0.0
DMA,6649,,,,,,,,,,,,,,,,,,,,,,,,,,,,,
DOM,6610,100.0,100.0,100.0,100.0,100.0,100.0,100.0,100.0,100.0,100.0,100.0,100.0,100.0,100.0,100.0,100.0,100.0,100.0,100.0,100.0,100.0,100.0,100.0,100.0,100.0,100.0,100.0,0.0,0.0
DOM,6649,,,,,,,,,,,,,,,,,,,,,,,,,,,,,
ECU,6610,100.0,100.0,100.0,100.0,100.0,100.0,100.0,100.0,100.0,100.0,100.0,100.0,100.0,100.0,100.0,100.0,100.0,100.0,100.0,100.0,100.0,100.0,100.0,100.0,100.0,100.0,100.0,0.0,0.0
ECU,6649,,,,,,,,,,,,,,,,,,,,,,,,,,,,,
EGY,6610,100.0,100.0,100.0,100.0,100.0,100.0,100.0,100.0,100.0,100.0,100.0,100.0,100.0,100.0,100.0,100.0,100.0,100.0,100.0,100.0,100.0,100.0,100.0,100.0,100.0,100.0,100.0,0.0,0.0
EGY,6649,,,,,,,,,,,,,,,,,,,,,,,,,,,,,
SLV,6610,100.00000000000001,100.0,100.00000000000001,100.00000000000001,100.0,100.00000000000001,100.00000000000001,100.00000000000001,100.00000000000001,100.00000000000001,100.00000000000001,100.00000000000001,100.00000000000001,100.00000000000001,100.00000000000001,100.00000000000001,100.00000000000001,100.00000000000001,100.00000000000001,100.00000000000001,100.00000000000001,100.00000000000001,100.00000000000001,100.00000000000001,100.0,100.00000000000001,100.0,0.0,1.931680268784669e-28
SLV,6649,,,,,,,,,,,,,,,,,,,,,,,,,,,,,
GNQ,6610,100.0,100.0,100.0,100.0,100.0,100.0,100.0,100.0,100.0,100.00000000000001,100.0,100.0,100.0,100.0,100.0,100.0,100.0,100.0,100.0,100.0,100.0,100.0,100.0,100.0,100.0,100.00000000000001,100.0,0.0,8.780364858112131e-30
GNQ,6649,,,,,,,,,,,,,,,,,,,,,,,,,,,,,
ERI,6610,100.0,100.0,100.0,100.0,100.0,100.0,100.0,100.0,100.0,100.0,100.0,100.0,100.0,100.0,100.0,100.0,100.0,100.0,100.0,100.0,100.0,100.0,100.0,100.0,100.0,100.0,100.0,0.0,0.0
ERI,6649,,,,,,,,,,,,,,,,,,,,,,,,,,,,,
EST,6610,100.0,100.0,100.0,100.0,100.0,100.0,100.0,100.0,100.0,100.0,100.0,100.0,100.0,100.0,100.0,100.0,100.0,100.0,100.0,100.0,100.0,100.0,100.0,100.0,100.0,100.0,100.0,0.0,0.0
EST,6649,,,,,,,,,,,,,,,,,,,,,,,,,,,,,
SWZ,6610,100.0,100.0,100.0,100.0,100.0,100.0,100.0,100.0,100.0,100.0,100.0,100.0,100.0,100.0,100.0,100.0,100.0,100.0,100.0,100.0,100.0,100.0,100.0,100.0,100.0,100.0,100.0,0.0,0.0
SWZ,6649,,,,,,,,,,,,,,,,,,,,,,,,,,,,,
ETH,6610,100.0,100.0,100.0,100.0,100.0,100.0,100.0,100.0,100.0,100.0,100.0,100.0,100.0,100.0,100.0,100.0,100.0,100.0,100.0,100.0,100.0,100.0,100.0,100.0,100.0,100.0,100.0,0.0,0.0
ETH,6649,,,,,,,,,,,,,,,,,,,,,,,,,,,,,
FRO,6610,100.0,100.0,100.0,100.0,100.0,100.0,100.0,100.0,100.0,100.0,100.0,100.0,100.0,100.0,100.0,100.0,100.0,100.0,100.0,100.0,100.0,100.0,100.0,100.0,100.0,100.0,100.0,0.0,0.0
FRO,6649,,,,,,,,,,,,,,,,,,,,,,,,,,,,,
FJI,6610,100.0,100.0,100.0,100.0,100.0,100.0,100.0,100.0,100.0,100.0,100.0,100.0,100.0,100.0,100.0,100.0,100.0,100.0,100.0,100.0,100.0,100.0,100.0,100.0,100.0,100.0,100.0,0.0,0.0
FJI,6649,,,,,,,,,,,,,,,,,,,,,,,,,,,,,
FIN,6610,100.0,100.0,100.0,100.0,100.0,100.0,100.0,100.0,100.0,100.0,100.0,100.0,100.0,100.0,100.0,100.0,100.0,100.0,100.0,100.0,100.0,100.0,100.0,100.0,100.0,100.0,100.0,0.0,0.0
FIN,6649,,,,,,,,,,,,,,,,,,,,,,,,,,,,,
FRA,6610,100.0,100.0,100.0,100.0,100.0,100.0,100.0,100.0,100.0,100.0,100.0,100.0,100.0,100.0,100.0,100.0,100.0,100.0,100.0,100.0,100.0,100.0,100.0,100.0,100.0,100.0,100.0,0.0,0.0
FRA,6649,,,,,,,,,,,,,,,,,,,,,,,,,,,,,
GUF,6610,100.0,100.0,100.0,100.0,100.0,100.0,100.0,100.0,100.0,100.0,100.0,100.0,100.0,100.0,100.0,100.0,100.0,100.0,100.0,100.0,100.0,100.0,100.0,100.0,100.0,100.0,100.0,0.0,0.0
GUF,6649,,,,,,,,,,,,,,,,,,,,,,,,,,,,,
PYF,6610,100.0,100.0,100.0,100.0,100.0,100.0,100.0,100.0,100.0,100.0,100.0,100.0,100.0,100.0,100.0,100.0,100.0,100.0,100.0,100.0,100.0,100.0,100.0,100.0,100.0,100.0,100.0,0.0,0.0
PYF,6649,,,,,,,,,,,,,,,,,,,,,,,,,,,,,
GAB,6610,100.0,100.0,100.0,100.0,100.0,100.0,100.0,100.0,100.0,100.0,100.0,100.0,100.0,100.0,100.0,100.0,100.0,100.0,100.0,100.0,100.0,100.0,100.0,100.0,100.0,100.0,100.0,0.0,0.0
GAB,6649,,,,,,,,,,,,,,,,,,,,,,,,,,,,,
GMB,6610,100.0,100.0,100.0,100.0,100.0,100.0,100.0,100.0,100.0,100.0,100.0,100.0,100.0,100.0,100.0,100.0,100.0,100.0,100.0,100.0,100.0,100.0,100.0,100.0,100.0,100.0,100.0,0.0,0.0
GMB,6649,,,,,,,,,,,,,,,,,,,,,,,,,,,,,
GEO,6610,100.0,100.0,100.0,100.0,100.0,100.0,100.0,100.0,100.0,100.0,100.0,100.0,100.0,100.0,100.0,100.0,100.0,100.0,100.0,98.21138211382114,100.0,100.0,100.0,100.0,98.21138211382114,100.0,99.92547425474254,0.36510009716280295,0.13329808094828816
GEO,6649,,,,,,,,,,,,,,,,,,,,1.7886178861788617,,,,,1.7886178861788617,1.7886178861788617,1.7886178861788617,0.0,
DEU,6610,100.0,100.0,100.0,100.0,100.0,100.0,100.0,100.0,100.0,100.0,100.0,100.0,100.0,100.0,100.0,100.0,100.0,100.0,100.0,91.228931435117,90.81089882761616,90.81343364954749,92.20865336796155,90.98114238863077,90.81089882761616,100.0,98.16846081953638,3.6552537645946646,13.360880083583469
DEU,6649,,,,,,,,,,,,,,,,,,,,0.021818578519609447,0.021710811984368215,0.02180787264202377,7.79134663203846,9.018857611369226,0.021710811984368215,9.018857611369226,3.3751083013107377,4.612198979876118,21.272379429970304
GHA,6610,100.0,100.0,100.0,100.0,100.0,100.0,100.0,100.00000000000001,100.0,100.0,100.0,100.0,100.0,100.0,100.0,100.0,99.99999999999999,100.0,100.00000000000001,100.0,100.0,100.0,100.0,100.0,99.99999999999999,100.00000000000001,100.0,0.0,2.6341094574336393e-29
GHA,6649,,,,,,,,,,,,,,,,,,,,,,,,,,,,,
GRC,6610,100.0,100.0,100.0,100.0,100.0,100.0,100.0,100.0,100.0,100.0,100.0,100.0,100.0,100.0,100.0,100.0,100.0,100.0,99.91618941192904,99.9033349444176,99.90330378726833,99.90231195050472,99.90176817288801,99.90179389812754,99.90176817288801,100.0,99.97619592354731,0.04219837889877851,0.0017807031816848755
GRC,6649,,,,,,,,,,,,,,,,,,,0.08381058807095963,0.09666505558240696,0.09669621273166801,0.09768804949527841,0.09823182711198428,0.09820610187246301,0.08381058807095963,0.09823182711198428,0.09521630581079339,0.005630651180921513,3.170423272121283e-05
GRD,6610,100.0,100.0,100.0,100.0,100.0,100.0,100.0,100.0,100.0,100.0,100.0,100.0,100.0,100.0,100.0,100.0,100.0,100.0,100.0,100.0,100.0,100.0,100.0,100.0,100.0,100.0,100.0,0.0,0.0
GRD,6649,,,,,,,,,,,,,,,,,,,,,,,,,,,,,
GLP,6610,100.0,100.0,100.0,100.0,100.0,100.0,100.0,100.0,100.0,100.0,100.0,100.0,100.0,100.0,100.0,100.0,100.0,100.0,100.0,100.0,100.0,100.0,100.0,100.0,100.0,100.0,100.0,0.0,0.0
GLP,6649,,,,,,,,,,,,,,,,,,,,,,,,,,,,,
GTM,6610,100.0,100.0,100.0,100.0,100.0,100.0,100.0,100.0,100.0,100.0,100.0,100.0,100.0,100.0,100.0,100.0,100.0,100.0,100.0,100.0,100.0,100.0,100.0,100.0,100.0,100.0,100.0,0.0,0.0
GTM,6649,,,,,,,,,,,,,,,,,,,,,,,,,,,,,
GIN,6610,100.0,100.0,100.0,100.0,100.0,100.0,100.0,100.0,100.0,100.0,100.0,100.0,100.0,100.0,100.0,100.0,100.0,100.0,100.0,100.0,100.0,100.0,100.0,100.0,100.0,100.0,100.0,0.0,0.0
GIN,6649,,,,,,,,,,,,,,,,,,,,,,,,,,,,,
GNB,6610,100.0,100.0,100.0,100.0,100.0,100.0,99.99999999999999,100.0,100.0,100.0,100.0,100.0,100.0,100.0,100.0,100.0,99.99999999999999,100.00000000000001,100.00000000000001,100.0,100.0,100.0,100.0,100.0,99.99999999999999,100.00000000000001,100.0,0.0,3.5121459432448525e-29
GNB,6649,,,,,,,,,,,,,,,,,,,,,,,,,,,,,
GUY,6610,100.0,100.0,100.0,100.0,100.0,100.0,100.0,100.0,100.0,100.0,100.0,100.0,100.0,100.0,100.0,100.0,100.0,100.0,100.0,100.0,100.0,100.0,100.0,100.0,100.0,100.0,100.0,0.0,0.0
GUY,6649,,,,,,,,,,,,,,,,,,,,,,,,,,,,,
HTI,6610,100.0,100.0,100.0,100.0,100.0,100.0,100.0,100.0,100.0,100.0,100.0,100.0,100.0,100.0,100.0,100.0,100.0,100.0,100.0,100.0,100.0,100.0,100.0,100.0,100.0,100.0,100.0,0.0,0.0
HTI,6649,,,,,,,,,,,,,,,,,,,,,,,,,,,,,
HND,6610,100.0,100.0,100.0,100.0,100.0,100.0,100.0,100.0,100.0,100.0,100.0,100.0,100.0,100.0,100.0,100.0,100.0,100.0,100.0,100.0,100.0,100.0,100.0,100.0,100.0,100.0,100.0,0.0,0.0
HND,6649,,,,,,,,,,,,,,,,,,,,,,,,,,,,,
HUN,6610,100.0,100.0,100.0,100.0,100.0,100.0,100.0,100.0,100.0,100.0,100.0,100.0,100.0,100.0,100.0,100.0,100.0,100.0,94.02611339653014,94.59119496855345,94.30311716230742,95.0,95.30913012221423,94.82542524619517,94.02611339653014,100.0,98.66895753732501,2.365120405796946,5.5937945339171105
HUN,6649,,,,,,,,,,,,,,,,,,,5.973886603469862,5.408805031446541,5.696882837692583,5.0,4.690869877785766,5.174574753804834,4.690869877785766,5.973886603469862,5.32416985069993,0.46834679119939543,0.21934871682677012
ISL,6610,100.0,100.0,100.0,100.0,100.0,100.0,100.0,100.0,100.0,100.0,100.0,100.0,100.0,100.0,100.0,100.0,100.0,100.0,100.0,100.0,100.0,100.0,100.0,100.0,100.0,100.0,100.0,0.0,0.0
ISL,6649,,,,,,,,,,,,,,,,,,,,,,,,,,,,,
IND,6610,100.0,100.0,100.0,100.0,100.0,100.0,100.0,100.0,100.0,100.0,100.0,100.0,100.0,100.0,100.0,100.0,100.0,100.0,100.0,100.0,100.0,100.0,100.0,100.0,100.0,100.0,100.0,0.0,0.0
IND,6649,,,,,,,,,,,,,,,,,,,,,,,,,,,,,
IDN,6610,100.0,100.0,100.0,100.0,100.0,100.0,100.0,100.0,100.0,100.0,100.0,100.0,100.0,100.0,100.0,100.0,100.0,100.0,100.0,100.0,100.0,100.0,100.0,100.0,100.0,100.0,100.0,0.0,0.0
IDN,6649,,,,,,,,,,,,,,,,,,,,,,,,,,,,,
IRN,6610,100.0,100.0,100.0,100.0,100.0,100.0,100.0,100.0,100.0,100.0,100.0,100.0,100.0,100.0,100.0,100.0,100.0,100.0,100.0,100.0,100.0,100.0,100.0,100.0,100.0,100.0,100.0,0.0,0.0
IRN,6649,,,,,,,,,,,,,,,,,,,,,,,,,,,,,
IRQ,6610,100.0,100.0,100.0,100.0,100.0,100.0,100.0,100.0,100.0,100.0,100.0,100.0,100.0,100.0,100.0,100.0,100.0,100.0,100.0,100.0,100.0,100.0,100.0,100.0,100.0,100.0,100.0,0.0,0.0
IRQ,6649,,,,,,,,,,,,,,,,,,,,,,,,,,,,,
IRL,6610,100.0,100.0,100.0,100.0,100.0,100.0,100.0,100.0,100.0,100.0,100.0,100.0,100.0,100.0,100.0,100.0,100.0,100.0,100.0,100.0,100.0,100.0,100.0,100.0,100.0,100.0,100.0,0.0,0.0
IRL,6649,,,,,,,,,,,,,,,,,,,,,,,,,,,,,
ISR,6610,100.0,100.0,100.0,100.0,100.0,100.0,100.0,100.0,100.0,100.0,100.0,100.0,100.0,100.0,100.0,100.0,100.0,100.0,100.0,100.0,100.0,100.0,100.0,100.0,100.0,100.0,100.0,0.0,0.0
ISR,6649,,,,,,,,,,,,,,,,,,,,,,,,,,,,,
ITA,6610,100.0,100.0,100.0,100.0,100.0,100.0,100.0,100.0,100.0,100.0,100.0,100.0,100.0,100.0,100.0,100.0,100.0,100.0,100.0,100.0,100.0,100.0,100.0,99.63055176291061,99.63055176291061,100.0,99.98460632345461,0.07541330560331501,0.005687166662018983
ITA,6649,,,,,,,,,,,,,,,,,,,,,,,,0.3694482370893904,0.3694482370893904,0.3694482370893904,0.3694482370893904,0.0,
JAM,6610,100.0,100.0,100.0,100.0,100.0,100.0,100.0,100.0,100.0,100.0,100.0,100.0,100.0,100.0,100.0,100.0,100.0,100.0,100.0,100.0,100.0,100.0,100.0,100.0,100.0,100.0,100.0,0.0,0.0
JAM,6649,,,,,,,,,,,,,,,,,,,,,,,,,,,,,
JPN,6610,100.0,100.0,100.0,100.0,100.0,100.0,100.0,100.0,100.0,100.0,100.0,100.0,100.0,100.0,100.0,100.0,100.0,100.0,100.0,100.0,100.0,100.0,100.0,100.0,100.0,100.0,100.0,0.0,0.0
JPN,6649,,,,,,,,,,,,,,,,,,,,,,,,,,,,,
JOR,6610,100.0,100.0,100.0,100.0,100.0,100.0,100.0,100.0,100.0,100.0,100.0,100.0,100.0,100.0,100.0,100.0,100.0,100.0,100.0,100.0,100.0,100.0,100.0,100.0,100.0,100.0,100.0,0.0,0.0
JOR,6649,,,,,,,,,,,,,,,,,,,,,,,,,,,,,
KAZ,6610,100.0,100.0,100.0,100.0,100.0,100.0,100.0,100.0,100.0,100.0,100.0,100.0,100.0,100.0,100.0,100.0,100.0,100.0,100.0,100.0,100.0,100.0,100.0,100.0,100.0,100.0,100.0,0.0,0.0
KAZ,6649,,,,,,,,,,,,,,,,,,,,,,,,,,,,,
KEN,6610,100.0,100.0,100.0,100.0,100.0,100.0,100.0,100.0,100.0,100.0,100.0,100.0,100.0,100.0,100.0,100.0,100.0,100.0,100.0,100.0,100.0,100.0,100.0,100.0,100.0,100.0,100.0,0.0,0.0
KEN,6649,,,,,,,,,,,,,,,,,,,,,,,,,,,,,
KIR,6610,100.0,100.0,100.0,100.0,100.0,100.0,100.0,100.0,100.0,100.0,100.0,100.0,100.0,100.0,100.0,100.0,100.0,100.0,100.0,100.0,100.0,100.0,100.0,100.0,100.0,100.0,100.0,0.0,0.0
KIR,6649,,,,,,,,,,,,,,,,,,,,,,,,,,,,,
KWT,6610,100.0,100.0,100.0,100.0,100.0,100.0,100.0,100.0,100.0,100.0,100.0,100.0,100.0,100.0,100.0,100.0,100.0,100.0,100.0,100.0,100.0,100.0,100.0,100.0,100.0,100.0,100.0,0.0,0.0
KWT,6649,,,,,,,,,,,,,,,,,,,,,,,,,,,,,
KGZ,6610,100.0,100.0,100.0,100.0,100.0,100.0,100.0,100.0,100.0,100.0,100.0,100.0,100.0,100.0,100.0,100.0,100.0,100.0,100.0,100.0,100.0,100.0,100.0,100.0,100.0,100.0,100.0,0.0,0.0
KGZ,6649,,,,,,,,,,,,,,,,,,,,,,,,,,,,,
LAO,6610,100.0,100.0,100.0,100.0,100.0,100.0,100.0,100.0,100.0,100.0,100.0,100.0,100.0,100.0,100.0,100.0,100.0,100.0,100.0,100.0,100.0,100.0,100.0,100.0,100.0,100.0,100.0,0.0,0.0
LAO,6649,,,,,,,,,,,,,,,,,,,,,,,,,,,,,
LVA,6610,100.0,100.0,100.0,100.0,100.0,100.0,100.0,100.0,100.0,100.0,100.0,100.0,100.0,100.0,100.0,100.0,100.0,100.0,100.0,100.0,100.0,100.0,100.0,100.0,100.0,100.0,100.0,0.0,0.0
LVA,6649,,,,,,,,,,,,,,,,,,,,,,,,,,,,,
LBN,6610,100.0,100.0,100.0,100.0,100.0,100.0,100.0,100.0,100.0,100.0,100.0,100.0,100.0,100.0,100.0,100.0,100.0,100.0,100.0,100.0,100.0,100.0,100.0,100.0,100.0,100.0,100.0,0.0,0.0
LBN,6649,,,,,,,,,,,,,,,,,,,,,,,,,,,,,
LSO,6610,100.0,100.0,100.0,100.0,100.0,100.0,100.0,100.0,100.0,100.0,100.0,100.0,100.0,100.0,100.0,100.0,100.0,100.0,100.0,100.0,100.0,100.0,100.0,100.0,100.0,100.0,100.0,0.0,0.0
LSO,6649,,,,,,,,,,,,,,,,,,,,,,,,,,,,,
LBR,6610,100.0,100.0,100.0,100.0,100.0,100.0,100.00000000000001,99.99999999999999,100.0,100.0,100.0,100.0,100.0,100.0,100.0,100.0,100.0,100.0,100.0,100.0,100.0,100.0,100.0,100.0,99.99999999999999,100.00000000000001,100.0,0.0,1.7560729716224262e-29
LBR,6649,,,,,,,,,,,,,,,,,,,,,,,,,,,,,
LBY,6610,100.0,100.0,100.0,100.0,100.0,100.0,100.0,100.0,100.0,100.0,100.0,100.0,100.0,100.0,100.0,100.0,100.0,100.0,100.0,100.0,100.0,100.0,100.0,100.0,100.0,100.0,100.0,0.0,0.0
LBY,6649,,,,,,,,,,,,,,,,,,,,,,,,,,,,,
LTU,6610,100.0,100.0,100.0,100.0,100.0,100.0,100.0,100.0,100.0,100.0,100.0,100.0,100.0,100.0,100.0,100.0,100.0,100.0,100.0,100.0,100.0,100.0,100.0,100.0,100.0,100.0,100.0,0.0,0.0
LTU,6649,,,,,,,,,,,,,,,,,,,,,,,,,,,,,
LUX,6610,100.0,100.0,100.0,100.0,100.0,100.0,100.0,100.0,100.0,100.0,100.0,100.0,100.0,100.0,100.0,100.0,100.0,100.0,100.0,100.0,100.0,100.0,100.0,100.0,100.0,100.0,100.0,0.0,0.0
LUX,6649,,,,,,,,,,,,,,,,,,,,,,,,,,,,,
MDG,6610,100.0,100.0,100.0,100.0,100.0,100.0,100.0,100.0,100.0,100.0,100.0,100.0,100.0,100.0,100.0,100.0,100.0,100.0,100.0,100.0,100.0,100.0,100.0,100.0,100.0,100.0,100.0,0.0,0.0
MDG,6649,,,,,,,,,,,,,,,,,,,,,,,,,,,,,
MWI,6610,100.0,100.0,100.0,100.0,100.0,100.0,100.0,100.0,100.0,100.0,100.0,100.0,100.0,100.0,100.0,100.0,100.0,100.0,100.0,100.0,100.0,100.0,100.0,100.0,100.0,100.0,100.0,0.0,0.0
MWI,6649,,,,,,,,,,,,,,,,,,,,,,,,,,,,,
MYS,6610,100.0,100.0,100.0,100.0,100.0,100.0,100.0,100.0,100.0,100.0,100.0,100.0,100.0,100.0,100.0,100.0,100.0,100.0,100.0,100.0,100.0,100.0,100.0,100.0,100.0,100.0,100.0,0.0,0.0
MYS,6649,,,,,,,,,,,,,,,,,,,,,,,,,,,,,
MDV,6610,100.0,100.0,100.0,100.0,100.0,100.0,100.0,100.0,100.0,100.0,100.0,100.0,100.0,100.0,100.0,100.0,100.0,100.0,100.0,100.0,100.0,100.0,100.0,100.0,100.0,100.0,100.0,0.0,0.0
MDV,6649,,,,,,,,,,,,,,,,,,,,,,,,,,,,,
MLI,6610,100.0,100.0,100.0,100.0,100.0,100.0,100.0,100.0,100.0,100.0,100.0,100.0,100.0,100.0,100.0,100.0,100.0,100.0,100.0,100.0,100.0,100.0,100.0,100.0,100.0,100.0,100.0,0.0,0.0
MLI,6649,,,,,,,,,,,,,,,,,,,,,,,,,,,,,
MLT,6610,100.0,100.0,100.0,100.0,100.0,100.0,100.0,100.0,100.0,100.0,100.0,100.0,100.0,100.0,100.0,100.0,100.0,100.0,100.0,100.0,100.0,99.99999999999999,99.99999999999999,99.99999999999999,99.99999999999999,100.0,100.0,0.0,2.6341094574336393e-29
MLT,6649,,,,,,,,,,,,,,,,,,,,,,,,,,,,,
MHL,6610,100.0,100.0,100.0,100.0,100.0,100.0,100.0,100.0,100.0,100.0,100.0,100.0,100.0,100.0,100.0,100.0,100.0,100.0,100.0,100.0,100.0,100.0,100.0,100.0,100.0,100.0,100.0,0.0,0.0
MHL,6649,,,,,,,,,,,,,,,,,,,,,,,,,,,,,
MTQ,6610,100.0,100.0,100.0,100.0,100.0,100.0,100.0,100.0,100.0,100.0,100.0,100.0,100.0,100.0,100.0,100.0,100.0,100.0,100.0,100.0,100.0,100.0,100.0,100.0,100.0,100.0,100.0,0.0,0.0
MTQ,6649,,,,,,,,,,,,,,,,,,,,,,,,,,,,,
MRT,6610,100.0,100.0,100.0,100.0,100.0,100.0,100.0,100.0,100.0,100.0,100.0,100.0,100.0,100.0,100.0,100.0,100.0,100.0,100.0,100.0,100.0,100.0,100.0,100.0,100.0,100.0,100.0,0.0,0.0
MRT,6649,,,,,,,,,,,,,,,,,,,,,,,,,,,,,
MUS,6610,100.0,100.0,100.0,100.0,100.0,100.0,100.0,100.0,100.0,100.0,100.0,100.0,100.0,100.0,100.0,100.0,100.0,100.0,100.0,100.0,100.0,100.0,100.0,100.0,100.0,100.0,100.0,0.0,0.0
MUS,6649,,,,,,,,,,,,,,,,,,,,,,,,,,,,,
MEX,6610,100.0,100.0,100.0,100.0,100.0,100.0,100.0,100.0,100.0,100.0,100.0,100.0,100.0,100.0,100.0,100.0,100.0,100.0,100.0,99.98422448557034,99.9506115452776,100.0,100.0,100.0,99.9506115452776,100.0,99.99728483461865,0.010448955350812581,0.00010918066792327488
MEX,6649,,,,,,,,,,,,,,,,,,,,0.015775514429665856,0.04938845472240783,,,,0.015775514429665856,0.04938845472240783,0.032581984576036845,0.023767938016616388,0.0005649148775617185
FSM,6610,100.0,100.0,100.0,100.0,100.0,100.0,100.0,100.0,100.0,100.0,100.0,100.0,100.0,100.0,100.0,100.0,100.0,100.0,100.0,100.0,100.0,100.0,100.0,100.0,100.0,100.0,100.0,0.0,0.0
FSM,6649,,,,,,,,,,,,,,,,,,,,,,,,,,,,,
MNG,6610,100.0,100.0,100.0,100.0,100.0,100.0,100.0,100.0,100.0,100.0,100.0,100.0,100.0,100.0,100.0,100.0,100.0,100.0,99.93741547561653,99.9324887393327,99.9346309033086,99.90268441290559,99.89737968679499,99.89748955080344,99.89737968679499,100.0,99.97925369869841,0.0378369153507841,0.0014316321632624018
MNG,6649,,,,,,,,,,,,,,,,,,,0.06258452438346881,0.06751126066730662,0.06536909669140054,0.09731558709441539,0.10262031320501393,0.10251044919656115,0.06258452438346881,0.10262031320501393,0.08298520520636106,0.019688019102485667,0.00038761809617984057
MNE,6610,,,,,,,,,,,,,,,,,,,100.0,100.0,100.0,100.0,100.0,100.0,100.0,100.0,100.0,0.0,0.0
MNE,6649,,,,,,,,,,,,,,,,,,,,,,,,,,,,,
MAR,6610,100.0,100.0,100.0,100.0,100.0,100.0,100.0,100.0,100.0,100.0,100.0,100.0,100.0,100.0,100.0,100.0,100.0,100.0,100.0,100.0,100.0,100.0,100.0,100.0,100.0,100.0,100.0,0.0,0.0
MAR,6649,,,,,,,,,,,,,,,,,,,,,,,,,,,,,
MOZ,6610,100.0,100.0,100.0,100.0,100.0,100.0,100.0,100.0,100.0,100.0,100.0,100.0,100.0,100.0,100.0,100.0,100.0,100.0,100.0,100.0,100.0,100.0,100.0,100.0,100.0,100.0,100.0,0.0,0.0
MOZ,6649,,,,,,,,,,,,,,,,,,,,,,,,,,,,,
MMR,6610,100.0,100.0,100.0,100.0,100.0,100.0,100.0,100.0,100.0,100.0,100.0,100.0,100.0,100.0,100.0,100.0,100.0,100.0,100.0,100.0,100.0,100.0,100.0,100.0,100.0,100.0,100.0,0.0,0.0
MMR,6649,,,,,,,,,,,,,,,,,,,,,,,,,,,,,
NAM,6610,100.0,100.0,100.0,100.0,100.0,100.0,100.0,100.0,100.0,100.0,100.0,100.0,100.0,100.0,100.0,100.0,100.0,100.0,100.0,100.0,100.0,100.0,100.0,100.0,100.0,100.0,100.0,0.0,0.0
NAM,6649,,,,,,,,,,,,,,,,,,,,,,,,,,,,,
NRU,6610,100.0,100.0,100.0,100.0,100.0,100.0,100.0,100.0,100.0,100.0,100.0,100.0,100.0,100.0,100.0,100.0,100.0,100.0,100.0,100.0,100.0,100.0,100.0,100.0,100.0,100.0,100.0,0.0,0.0
NRU,6649,,,,,,,,,,,,,,,,,,,,,,,,,,,,,
NPL,6610,100.0,100.0,100.0,100.0,100.0,100.0,100.0,100.0,100.0,100.0,100.0,100.0,100.0,100.0,100.0,100.0,100.0,100.0,100.0,100.0,100.0,100.0,100.0,100.0,100.0,100.0,100.0,0.0,0.0
NPL,6649,,,,,,,,,,,,,,,,,,,,,,,,,,,,,
NLD,6610,100.0,100.0,100.0,100.0,100.0,100.0,100.0,100.0,100.0,100.0,100.0,100.0,100.0,100.0,100.0,100.0,100.0,100.0,100.0,100.0,100.0,100.0,100.0,100.0,100.0,100.0,100.0,0.0,0.0
NLD,6649,,,,,,,,,,,,,,,,,,,,,,,,,,,,,
NCL,6610,100.0,100.0,100.0,100.0,100.0,100.0,100.0,100.0,100.0,100.0,100.0,100.0,100.0,100.0,100.0,100.0,100.0,99.99999999999999,100.0,100.0,100.0,100.0,100.0,100.0,99.99999999999999,100.0,100.0,0.0,8.780364858112131e-30
NCL,6649,,,,,,,,,,,,,,,,,,,,,,,,,,,,,
NZL,6610,100.0,100.0,100.0,100.0,100.0,100.0,100.0,100.0,100.0,100.0,100.0,100.0,100.0,100.0,100.0,100.0,100.0,100.0,100.0,100.0,100.0,100.0,100.0,100.0,100.0,100.0,100.0,0.0,0.0
NZL,6649,,,,,,,,,,,,,,,,,,,,,,,,,,,,,
NIC,6610,100.0,100.0,100.0,100.0,100.0,100.0,100.0,100.0,100.0,100.0,100.0,100.0,100.0,100.0,100.0,100.0,100.0,100.0,100.0,100.0,100.0,100.0,100.0,100.0,100.0,100.0,100.0,0.0,0.0
NIC,6649,,,,,,,,,,,,,,,,,,,,,,,,,,,,,
NER,6610,100.0,100.0,100.0,100.0,100.0,100.0,100.0,100.0,100.0,100.0,100.0,100.0,100.0,100.0,100.0,100.0,100.0,100.0,100.0,100.0,100.0,100.0,100.0,100.0,100.0,100.0,100.0,0.0,0.0
NER,6649,,,,,,,,,,,,,,,,,,,,,,,,,,,,,
NGA,6610,100.0,100.0,100.0,100.0,100.0,100.0,100.0,100.0,100.0,100.0,100.0,100.0,100.0,100.0,100.0,100.0,100.0,100.0,100.0,100.0,100.0,100.0,100.0,100.0,100.0,100.0,100.0,0.0,0.0
NGA,6649,,,,,,,,,,,,,,,,,,,,,,,,,,,,,
NIU,6610,100.0,100.0,100.0,100.0,100.0,100.0,100.0,100.0,100.0,100.0,100.0,100.0,100.0,100.0,100.0,100.0,100.0,100.0,100.0,100.0,100.0,100.0,100.0,100.0,100.0,100.0,100.0,0.0,0.0
NIU,6649,,,,,,,,,,,,,,,,,,,,,,,,,,,,,
MKD,6610,100.0,100.0,100.0,100.0,100.0,100.0,100.0,100.0,100.0,100.0,100.0,100.0,100.0,100.0,100.0,100.0,100.0,100.0,100.0,100.0,100.0,100.0,100.0,100.0,100.0,100.0,100.0,0.0,0.0
MKD,6649,,,,,,,,,,,,,,,,,,,,,,,,,,,,,
NOR,6610,100.0,100.0,100.0,100.0,100.0,100.0,100.0,100.0,100.0,100.0,100.0,100.0,100.0,100.0,100.0,100.0,100.0,100.0,100.0,100.0,100.0,100.0,100.0,100.0,100.0,100.0,100.0,0.0,0.0
NOR,6649,,,,,,,,,,,,,,,,,,,,,,,,,,,,,
OMN,6610,100.0,100.0,100.0,100.0,100.0,100.0,100.0,100.0,100.0,100.0,100.0,100.0,100.0,100.0,100.0,100.0,100.0,100.0,100.0,100.0,100.0,100.0,100.0,100.0,100.0,100.0,100.0,0.0,0.0
OMN,6649,,,,,,,,,,,,,,,,,,,,,,,,,,,,,
PAK,6610,100.0,100.0,100.0,100.0,100.0,100.0,100.0,100.0,100.0,100.0,100.0,100.0,100.0,100.0,100.0,100.0,100.0,100.0,100.0,100.0,100.0,100.0,100.0,100.0,100.0,100.0,100.0,0.0,0.0
PAK,6649,,,,,,,,,,,,,,,,,,,,,,,,,,,,,
PSE,6610,100.0,100.0,100.0,100.0,100.0,100.0,100.0,100.0,100.0,100.0,100.0,100.0,100.0,100.0,100.0,100.0,100.0,100.0,100.0,100.0,100.0,100.0,100.0,100.0,100.0,100.0,100.0,0.0,0.0
PSE,6649,,,,,,,,,,,,,,,,,,,,,,,,,,,,,
PAN,6610,100.0,100.0,100.0,100.0,100.0,100.0,100.0,100.0,100.0,100.0,100.0,100.0,100.0,100.0,100.0,100.0,100.0,100.0,100.0,100.0,100.0,100.0,100.0,100.0,100.0,100.0,100.0,0.0,0.0
PAN,6649,,,,,,,,,,,,,,,,,,,,,,,,,,,,,
PNG,6610,100.0,100.0,100.0,100.0,100.0,100.0,100.0,100.0,100.0,100.0,100.0,100.0,100.0,100.0,100.0,100.0,100.0,100.0,100.0,100.0,100.0,100.0,100.0,100.0,100.0,100.0,100.0,0.0,0.0
PNG,6649,,,,,,,,,,,,,,,,,,,,,,,,,,,,,
PRY,6610,100.0,100.0,100.0,100.0,100.0,100.0,100.0,100.0,100.0,100.0,100.0,100.0,100.0,100.0,100.0,100.0,100.0,100.0,100.00000000000001,100.0,100.0,100.0,100.0,100.0,100.0,100.00000000000001,100.0,0.0,8.780364858112131e-30
PRY,6649,,,,,,,,,,,,,,,,,,,,,,,,,,,,,
PER,6610,100.0,100.0,100.0,100.0,100.0,100.0,100.0,100.0,100.0,100.0,100.0,100.0,100.0,100.0,100.0,100.0,100.0,100.0,99.06519265160136,100.0,100.0,100.0,100.0,100.0,99.06519265160136,100.0,99.96104969381672,0.19081675094839987,0.03641103244250366
PER,6649,,,,,,,,,,,,,,,,,,,0.9348073483986343,,,,,,0.9348073483986343,0.9348073483986343,0.9348073483986343,0.0,
PHL,6610,100.0,100.0,100.0,100.0,100.0,100.0,100.0,100.0,100.0,100.0,100.0,100.0,100.0,100.0,100.0,100.0,100.0,100.0,100.0,100.0,100.0,100.0,100.0,100.0,100.0,100.0,100.0,0.0,0.0
PHL,6649,,,,,,,,,,,,,,,,,,,,,,,,,,,,,
POL,6610,100.0,100.0,100.0,100.0,100.0,100.0,100.0,100.0,100.0,100.0,100.0,100.0,100.0,100.0,100.0,100.0,100.0,100.0,98.63782599767266,99.07954389339194,98.80371261601925,98.83792890050196,98.91928864569084,98.92971572704343,98.63782599767266,100.0,99.71700065751334,0.5054308790350938,0.2554603734821876
POL,6649,,,,,,,,,,,,,,,,,,,1.3621740023273325,0.9204561066080506,1.1962873839807493,1.1620710994980403,1.0807113543091655,1.0702842729565751,0.9204561066080506,1.3621740023273325,1.1319973699466521,0.1477886227303794,0.02184147700854242
PRT,6610,100.0,100.0,100.0,100.0,100.0,100.0,100.0,100.0,100.0,100.0,100.0,100.0,100.0,100.0,100.0,100.0,100.0,100.0,99.5875073659399,99.0320810662515,98.47768489024446,99.5206877017759,99.58701300143225,99.51467664600631,98.47768489024446,100.0,99.82165211131877,0.37860766439966753,0.1433437635421713
PRT,6649,,,,,,,,,,,,,,,,,,,,,,,,,,,,,
PRI,6610,100.0,100.0,100.0,100.0,100.0,100.0,100.0,100.0,100.0,100.0,100.0,100.0,100.0,100.0,100.0,100.0,100.0,100.0,100.0,100.0,100.0,100.0,100.0,100.0,100.0,100.0,100.0,0.0,0.0
PRI,6649,,,,,,,,,,,,,,,,,,,,,,,,,,,,,
QAT,6610,100.0,100.0,100.0,100.0,100.0,100.0,100.0,100.0,100.0,100.0,100.0,100.0,100.0,100.0,100.0,100.0,100.0,100.0,100.0,100.0,100.0,100.0,100.0,100.0,100.0,100.0,100.0,0.0,0.0
QAT,6649,,,,,,,,,,,,,,,,,,,,,,,,,,,,,
KOR,6610,100.0,100.0,100.0,100.0,100.0,100.0,100.0,100.0,100.0,100.0,100.0,100.0,100.0,100.0,100.0,100.0,100.0,100.0,100.0,100.0,100.0,100.0,100.0,100.0,100.0,100.0,100.0,0.0,0.0
KOR,6649,,,,,,,,,,,,,,,,,,,,,,,,,,,,,
MDA,6610,100.0,100.0,100.0,100.0,100.0,100.0,100.0,100.0,100.0,100.0,100.0,100.0,100.0,100.0,100.0,100.0,100.0,100.0,100.0,99.22846120874411,99.22945205479452,99.22941906759706,99.22922108508543,99.14345954493544,99.14345954493544,100.0,99.83583387338153,0.32729195126868993,0.1071200213652665
MDA,6649,,,,,,,,,,,,,,,,,,,,0.7715387912558938,0.7705479452054794,0.7705809324029281,0.770778914914572,0.85654045506457,0.7705479452054794,0.85654045506457,0.7879974077686887,0.03831882449984251,0.0014683323110497306
REU,6610,100.0,100.0,100.0,100.0,100.0,100.0,100.0,100.0,100.0,100.0,100.0,100.0,100.0,100.0,100.0,100.0,100.0,100.0,100.0,100.0,100.0,100.0,100.0,100.0,100.0,100.0,100.0,0.0,0.0
REU,6649,,,,,,,,,,,,,,,,,,,,,,,,,,,,,
ROU,6610,100.0,100.0,100.0,100.0,100.0,100.0,100.0,100.0,100.0,100.0,100.0,100.0,100.0,100.0,100.0,100.0,100.0,100.0,100.0,100.0,100.0,100.0,100.0,100.0,100.0,100.0,100.0,0.0,0.0
ROU,6649,,,,,,,,,,,,,,,,,,,,,,,,,,,,,
RUS,6610,100.0,100.0,100.0,100.0,100.0,100.0,100.0,100.0,100.0,100.0,100.0,100.0,100.0,100.0,100.0,100.0,100.0,100.0,100.0,100.0,100.0,100.0,100.0,100.0,100.0,100.0,100.0,0.0,0.0
RUS,6649,,,,,,,,,,,,,,,,,,,,,,,,,,,,,
RWA,6610,100.0,100.0,100.0,100.0,100.0,100.0,100.0,100.0,100.0,100.0,100.0,100.0,100.0,100.0,100.0,100.0,100.0,100.0,100.0,100.0,100.0,100.0,100.0,100.0,100.0,100.0,100.0,0.0,0.0
RWA,6649,,,,,,,,,,,,,,,,,,,,,,,,,,,,,
KNA,6610,100.0,100.0,100.0,100.0,100.0,100.0,100.0,100.0,100.0,100.0,100.0,100.0,100.0,100.0,100.0,100.0,100.0,100.0,100.0,100.0,100.0,100.0,100.0,100.0,100.0,100.0,100.0,0.0,0.0
KNA,6649,,,,,,,,,,,,,,,,,,,,,,,,,,,,,
LCA,6610,100.0,100.0,100.0,100.0,100.0,100.0,100.0,100.0,100.0,100.0,100.0,100.0,100.0,100.0,100.0,100.0,100.0,100.0,100.0,100.0,100.0,100.0,100.0,100.0,100.0,100.0,100.0,0.0,0.0
LCA,6649,,,,,,,,,,,,,,,,,,,,,,,,,,,,,
VCT,6610,100.0,100.0,100.0,100.0,100.0,100.0,100.0,100.0,100.0,100.0,100.0,100.0,100.0,100.0,100.0,100.0,100.0,100.0,100.0,100.0,100.0,100.0,100.0,100.0,100.0,100.0,100.0,0.0,0.0
VCT,6649,,,,,,,,,,,,,,,,,,,,,,,,,,,,,
WSM,6610,100.0,100.0,100.0,100.0,100.0,100.0,100.0,100.0,100.0,100.0,100.0,100.0,100.0,100.0,100.0,100.0,100.0,100.0,100.0,100.0,100.0,100.0,100.0,100.0,100.0,100.0,100.0,0.0,0.0
WSM,6649,,,,,,,,,,,,,,,,,,,,,,,,,,,,,
STP,6610,100.0,100.0,100.0,100.0,100.0,100.0,100.0,100.0,100.0,100.0,100.0,100.0,100.0,100.0,100.0,100.0,100.0,100.0,100.0,100.0,100.0,100.0,100.0,100.0,100.0,100.0,100.0,0.0,0.0
STP,6649,,,,,,,,,,,,,,,,,,,,,,,,,,,,,
SAU,6610,100.0,100.0,100.0,100.0,100.0,100.0,100.0,100.0,100.0,100.0,100.0,100.0,100.0,100.0,100.0,100.0,100.0,100.0,100.0,100.0,100.0,100.0,100.0,100.0,100.0,100.0,100.0,0.0,0.0
SAU,6649,,,,,,,,,,,,,,,,,,,,,,,,,,,,,
SEN,6610,100.0,100.0,100.0,100.0,100.0,100.0,100.0,100.0,100.0,100.0,100.0,100.0,100.0,100.0,100.0,100.0,100.0,100.0,100.0,100.0,100.0,100.0,100.0,100.0,100.0,100.0,100.0,0.0,0.0
SEN,6649,,,,,,,,,,,,,,,,,,,,,,,,,,,,,
SRB,6610,,,,,,,,,,,,,,,,,,,100.0,100.0,100.0,100.0,100.0,100.0,100.0,100.0,100.0,0.0,0.0
SRB,6649,,,,,,,,,,,,,,,,,,,,,,,,,,,,,
SYC,6610,100.0,100.0,100.0,100.0,100.0,100.0,100.0,100.0,100.0,100.0,100.0,100.0,100.0,100.0,100.0,100.0,100.0,100.0,100.0,100.0,100.0,100.0,100.0,100.0,100.0,100.0,100.0,0.0,0.0
SYC,6649,,,,,,,,,,,,,,,,,,,,,,,,,,,,,
SLE,6610,100.0,100.0,100.0,100.0,100.0,100.0,100.0,100.0,100.0,100.0,100.0,100.0,100.0,100.0,100.0,100.0,100.0,100.0,100.0,100.0,100.0,100.0,100.0,100.0,100.0,100.0,100.0,0.0,0.0
SLE,6649,,,,,,,,,,,,,,,,,,,,,,,,,,,,,
SGP,6610,100.0,100.0,100.0,100.0,100.0,100.0,100.0,100.0,100.0,100.0,100.0,100.0,100.0,100.0,100.0,100.0,100.0,100.0,100.0,100.0,100.0,100.0,100.0,100.0,100.0,100.0,100.0,0.0,0.0
SGP,6649,,,,,,,,,,,,,,,,,,,,,,,,,,,,,
SVK,6610,100.0,100.0,100.0,100.0,100.0,100.0,100.0,100.0,100.0,100.0,100.0,100.0,100.0,100.0,100.0,100.0,100.0,100.0,98.35844155844156,98.35502342529932,98.26222684703434,98.2803543512246,98.32548403976975,98.38541666666667,98.26222684703434,100.0,99.5819561203515,0.7399860554136276,0.5475793622066203
SVK,6649,,,,,,,,,,,,,,,,,,,,,,,,,,,,,
SVN,6610,100.0,100.0,100.0,100.0,100.0,100.0,100.0,100.0,100.0,100.0,100.0,100.0,100.0,100.0,100.0,100.0,100.0,100.0,100.0,99.3680808080808,99.32813456642928,99.33240030243071,99.32495720422466,99.32162679736442,99.32162679736442,100.0,99.86146665327207,0.27597193025067335,0.07616050628628251
SVN,6649,,,,,,,,,,,,,,,,,,,,0.6319191919191919,0.671865433570715,0.6675996975692937,0.6750427957753302,0.6783732026355935,0.6319191919191919,0.6783732026355935,0.6649600642940249,0.01889394605594296,0.0003569811975648825
SLB,6610,100.0,100.0,100.0,100.0,100.0,100.0,100.0,100.0,100.0,100.0,100.0,100.0,100.0,100.0,100.0,100.0,100.0,100.0,100.0,100.0,100.0,100.0,100.0,100.0,100.0,100.0,100.0,0.0,0.0
SLB,6649,,,,,,,,,,,,,,,,,,,,,,,,,,,,,
SOM,6610,100.0,100.0,100.0,100.0,100.0,100.0,100.0,100.0,100.0,100.0,100.0,100.0,100.0,100.0,100.0,100.0,100.0,100.0,100.0,100.0,100.0,100.0,100.0,100.0,100.0,100.0,100.0,0.0,0.0
SOM,6649,,,,,,,,,,,,,,,,,,,,,,,,,,,,,
ZAF,6610,100.0,100.0,100.0,100.0,100.0,100.0,100.0,100.0,100.0,100.0,100.0,100.0,100.0,100.0,100.0,100.0,100.0,100.0,100.0,100.0,100.0,100.0,100.0,100.0,100.0,100.0,100.0,0.0,0.0
ZAF,6649,,,,,,,,,,,,,,,,,,,,,,,,,,,,,
SSD,6610,,,,,,,,,,,,,,,,,,,100.0,100.0,100.0,100.0,100.0,100.0,100.0,100.0,100.0,0.0,0.0
SSD,6649,,,,,,,,,,,,,,,,,,,,,,,,,,,,,
ESP,6610,100.0,100.0,100.0,100.0,100.0,100.0,100.0,100.0,100.0,100.0,100.0,100.0,100.0,100.0,100.0,100.0,100.0,100.0,100.0,100.0,100.0,100.0,100.0,100.00000000000001,100.0,100.00000000000001,100.0,0.0,8.780364858112131e-30
ESP,6649,,,,,,,,,,,,,,,,,,,,,,,,,,,,,
LKA,6610,100.0,100.0,100.0,100.0,100.0,100.0,100.0,100.0,100.0,100.0,100.0,100.0,100.0,100.0,100.0,100.0,100.0,100.0,100.0,100.0,100.0,100.0,100.0,100.0,100.0,100.0,100.0,0.0,0.0
LKA,6649,,,,,,,,,,,,,,,,,,,,,,,,,,,,,
SUR,6610,100.0,100.0,100.0,100.0,100.0,100.0,100.0,100.0,100.0,100.0,100.0,100.0,100.0,100.0,100.0,100.0,100.0,100.0,100.0,100.0,100.0,100.0,100.0,100.0,100.0,100.0,100.0,0.0,0.0
SUR,6649,,,,,,,,,,,,,,,,,,,,,,,,,,,,,
SWE,6610,100.0,100.0,100.0,100.0,100.0,100.0,100.0,100.0,100.0,100.0,100.0,100.0,100.0,100.0,100.0,100.0,100.0,100.0,100.0,100.0,100.0,100.0,100.0,100.0,100.0,100.0,100.0,0.0,0.0
SWE,6649,,,,,,,,,,,,,,,,,,,,,,,,,,,,,
CHE,6610,100.0,100.0,100.0,100.0,100.0,100.0,100.0,100.0,100.0,100.0,100.0,100.0,100.0,100.0,100.0,100.0,100.0,100.0,98.2744605610826,98.27074403974372,98.26714265668134,98.26371545330646,98.25902811430994,98.25725089194897,98.25725089194897,100.0,99.56634757154471,0.7672690815957248,0.588701843572747
CHE,6649,,,,,,,,,,,,,,,,,,,1.7255458836535646,1.7292624173539926,1.7328638128011262,1.7362845466935293,1.7409718856900602,1.7427491080510173,1.7255458836535646,1.7427491080510173,1.7346129423738816,0.006683213884263486,4.466534782281223e-05
SYR,6610,100.0,100.0,100.0,100.0,100.0,100.0,100.0,100.0,100.0,100.0,100.0,100.0,100.0,100.0,100.0,100.0,100.0,100.0,100.0,100.0,100.0,100.0,100.0,100.0,100.0,100.0,100.0,0.0,0.0
SYR,6649,,,,,,,,,,,,,,,,,,,,,,,,,,,,,
TJK,6610,100.0,100.0,100.0,100.0,100.0,100.0,100.0,100.0,100.0,100.0,100.0,100.0,100.0,100.0,100.0,100.0,100.0,100.0,100.0,100.0,100.0,100.0,100.0,100.0,100.0,100.0,100.0,0.0,0.0
TJK,6649,,,,,,,,,,,,,,,,,,,,,,,,,,,,,
THA,6610,100.0,100.0,100.0,100.0,100.0,100.0,100.0,100.0,100.0,100.0,100.0,100.0,100.0,100.0,100.0,100.0,100.0,100.0,100.0,100.0,100.0,100.0,100.0,100.0,100.0,100.0,100.0,0.0,0.0
THA,6649,,,,,,,,,,,,,,,,,,,,,,,,,,,,,
TLS,6610,100.0,100.0,100.0,100.0,100.0,100.0,100.0,100.0,100.0,100.0,100.0,100.0,100.0,100.0,100.0,100.0,100.0,100.0,100.0,100.0,100.0,100.0,100.0,100.0,100.0,100.0,100.0,0.0,0.0
TLS,6649,,,,,,,,,,,,,,,,,,,,,,,,,,,,,
TGO,6610,100.0,100.0,100.0,100.0,100.0,100.0,100.0,100.0,100.0,100.0,100.0,100.0,100.0,100.0,100.0,100.0,100.0,100.0,100.0,100.0,100.0,100.0,100.0,100.0,100.0,100.0,100.0,0.0,0.0
TGO,6649,,,,,,,,,,,,,,,,,,,,,,,,,,,,,
TKL,6610,100.0,100.0,100.0,100.0,100.0,100.0,100.0,100.0,100.0,100.0,100.0,100.0,100.0,100.0,100.0,100.0,100.0,100.0,100.0,100.0,100.0,100.0,100.0,100.0,100.0,100.0,100.0,0.0,0.0
TKL,6649,,,,,,,,,,,,,,,,,,,,,,,,,,,,,
TON,6610,100.0,100.0,100.0,100.0,100.0,100.0,100.0,100.0,100.0,100.0,100.0,100.0,100.0,100.0,100.0,100.0,100.0,100.0,100.0,100.0,100.0,100.0,100.0,100.0,100.0,100.0,100.0,0.0,0.0
TON,6649,,,,,,,,,,,,,,,,,,,,,,,,,,,,,
TTO,6610,100.0,100.0,100.0,100.0,100.0,100.0,100.0,100.0,100.0,100.0,100.0,100.0,100.0,100.0,100.0,100.0,100.0,100.0,100.0,100.0,100.0,100.0,100.0,100.0,100.0,100.0,100.0,0.0,0.0
TTO,6649,,,,,,,,,,,,,,,,,,,,,,,,,,,,,
TUN,6610,100.0,100.0,100.0,100.0,100.0,100.0,100.0,100.0,100.0,100.0,100.0,100.0,100.0,100.0,100.0,100.0,100.0,100.0,100.0,100.0,100.0,100.0,100.0,100.0,100.0,100.0,100.0,0.0,0.0
TUN,6649,,,,,,,,,,,,,,,,,,,,,,,,,,,,,
TUR,6610,100.0,100.0,100.0,100.0,100.0,100.0,100.0,100.0,100.0,100.0,100.0,100.0,100.0,100.0,100.0,100.0,100.0,100.0,100.0,100.0,100.0,100.0,100.0,100.0,100.0,100.0,100.0,0.0,0.0
TUR,6649,,,,,,,,,,,,,,,,,,,,,,,,,,,,,
TKM,6610,100.0,100.0,100.0,100.0,100.0,100.0,100.0,100.0,100.0,100.0,100.0,100.0,100.0,100.0,100.0,100.0,100.0,100.0,100.0,100.0,100.0,100.0,100.0,100.0,100.0,100.0,100.0,0.0,0.0
TKM,6649,,,,,,,,,,,,,,,,,,,,,,,,,,,,,
TUV,6610,100.0,100.0,100.0,100.0,100.0,100.0,100.0,100.0,100.0,100.0,100.0,100.0,100.0,100.0,100.0,100.0,100.0,100.0,100.0,100.0,100.0,100.0,100.0,100.0,100.0,100.0,100.0,0.0,0.0
TUV,6649,,,,,,,,,,,,,,,,,,,,,,,,,,,,,
UGA,6610,100.0,100.0,100.0,100.0,100.0,100.0,100.0,100.0,100.0,100.0,100.0,100.0,100.0,100.0,100.0,100.0,100.0,100.0,100.0,100.0,100.0,100.0,100.0,100.0,100.0,100.0,100.0,0.0,0.0
UGA,6649,,,,,,,,,,,,,,,,,,,,,,,,,,,,,
UKR,6610,100.0,100.0,100.0,100.0,100.0,100.0,100.0,100.0,100.0,100.0,100.0,100.0,100.0,100.0,100.0,100.0,100.0,100.0,98.60378971363443,98.60329223972066,98.60553509918043,98.60576694693839,98.60724896019013,98.60663755875265,98.60329223972066,100.0,99.65134460493402,0.6168776293493475,0.38053800959167106
UKR,6649,,,,,,,,,,,,,,,,,,,1.3962102863655792,1.3967077602793416,1.3944649008195749,1.3942330530616123,1.3927510398098633,1.3933624412473458,1.3927510398098633,1.3967077602793416,1.3946215802638864,0.0015579466372587652,2.4271977245458946e-06
ARE,6610,100.0,100.0,100.0,100.0,100.0,100.0,100.0,100.0,100.0,100.0,100.0,100.0,100.0,100.0,100.0,100.0,100.0,100.0,100.0,100.0,100.0,100.0,100.0,100.0,100.0,100.0,100.0,0.0,0.0
ARE,6649,,,,,,,,,,,,,,,,,,,0.1136004217185029,0.14640522875816994,0.03657262277951934,0.18759770713913496,0.1719645648775404,0.1990831696136215,0.03657262277951934,0.1990831696136215,0.14253728581441483,0.06029039093599263,0.0036349312392148225
GBR,6610,100.0,100.0,100.0,100.0,100.0,100.0,100.0,100.0,100.0,100.0,100.0,100.0,100.0,100.0,100.0,100.0,100.0,100.0,98.10611832082878,98.13947108702519,98.11676946694988,98.11286242597174,98.13897350721479,98.09936296928305,98.09936296928305,100.0,99.52973157405306,0.8320844549891452,0.6923645402345828
GBR,6649,,,,,,,,,,,,,,,,,,,,,,,,,,,,,
TZA,6610,100.0,100.0,100.0,100.0,100.0,100.0,100.0,100.0,100.0,100.0,100.0,100.0,100.0,100.0,100.0,100.0,100.0,100.0,100.0,100.0,100.0,100.0,100.0,100.0,100.0,100.0,100.0,0.0,0.0
TZA,6649,,,,,,,,,,,,,,,,,,,,,,,,,,,,,
USA,6610,100.0,100.0,100.0,100.0,100.0,100.0,100.0,100.0,100.0,100.0,100.0,100.0,100.0,100.0,100.0,100.0,100.0,100.00000000000001,100.0,100.0,100.0,100.0,99.99999999999999,99.99999999999999,99.99999999999999,100.00000000000001,100.0,0.0,2.6341094574336393e-29
USA,6649,,,,,,,,,,,,,,,,,,,,,,,,,,,,,
URY,6610,100.0,100.0,100.0,100.0,100.0,100.0,100.0,100.0,100.0,100.0,100.0,100.0,100.0,100.0,100.0,100.0,100.0,100.0,100.0,100.0,100.0,100.0,100.0,100.0,100.0,100.0,100.0,0.0,0.0
URY,6649,,,,,,,,,,,,,,,,,,,,,,,,,,,,,
UZB,6610,100.0,100.0,100.0,100.0,100.0,100.0,100.0,100.0,100.0,100.0,100.0,100.0,100.0,100.0,100.0,100.0,100.0,100.0,100.0,100.0,97.64362665649729,97.64261223431237,97.63825808175261,97.63598885368553,97.63598885368553,100.0,99.60668690942698,0.8983913523845196,0.8071070220392862
UZB,6649,,,,,,,,,,,,,,,,,,,,,2.356373343502717,2.3573877656876316,2.361741918247395,2.3640111463144633,2.356373343502717,2.3640111463144633,2.359878543438052,0.003607444737524434,1.3013657534292731e-05
VUT,6610,100.0,100.0,100.0,100.0,100.0,100.0,100.0,100.0,100.0,100.0,100.0,100.0,100.0,100.0,100.0,100.0,100.0,100.0,100.0,100.0,100.0,100.0,100.0,100.0,100.0,100.0,100.0,0.0,0.0
VUT,6649,,,,,,,,,,,,,,,,,,,,,,,,,,,,,
VEN,6610,100.0,100.0,100.0,100.0,100.0,100.0,100.0,100.0,100.0,100.0,100.0,100.0,100.0,100.0,100.0,100.0,100.0,100.0,100.0,100.0,100.0,100.0,100.0,100.0,100.0,100.0,100.0,0.0,0.0
VEN,6649,,,,,,,,,,,,,,,,,,,,,,,,,,,,,
VNM,6610,100.0,100.0,100.0,100.0,100.0,100.0,100.0,100.0,100.0,100.0,100.0,100.0,100.0,100.0,100.0,100.0,100.0,100.0,100.0,100.0,100.0,100.0,100.0,100.0,100.0,100.0,100.0,0.0,0.0
VNM,6649,,,,,,,,,,,,,,,,,,,,,,,,,,,,,
YEM,6610,100.0,100.0,100.0,100.0,100.0,100.0,100.0,100.0,100.0,100.0,100.0,100.0,100.0,100.0,100.0,100.0,100.0,100.0,100.0,100.0,100.0,100.0,100.0,100.0,100.0,100.0,100.0,0.0,0.0
YEM,6649,,,,,,,,,,,,,,,,,,,,,,,,,,,,,
ZMB,6610,100.0,100.0,100.0,100.0,100.0,100.0,100.0,100.0,100.0,100.0,100.0,100.0,100.0,100.0,100.0,100.0,100.0,100.0,100.0,100.0,100.0,100.0,100.0,100.0,100.0,100.0,100.0,0.0,0.0
ZMB,6649,,,,,,,,,,,,,,,,,,,,,,,,,,,,,
ZWE,6610,100.0,100.0,100.0,100.0,100.0,100.0,100.0,100.0,100.0,100.0,100.0,100.0,100.0,100.0,100.0,100.0,100.0,100.0,100.0,100.0,100.0,100.0,100.0,100.0,100.0,100.0,100.0,0.0,0.0
ZWE,6649,,,,,,,,,,,,,,,,,,,,,,,,,,,,,
