ISO3,item,Y1995,Y1996,Y1997,Y1998,Y1999,Y2000,Y2001,Y2002,Y2003,Y2004,Y2005,Y2006,Y2007,Y2008,Y2009,Y2010,Y2011,Y2012,Y2013,Y2014,Y2015,Y2016,Y2017,Y2018,min_value,max_value,mean_value,std_dev,var
AFG,6694,,,,,,,,,,,,,,,,,,,,,,,,,,,,,
AFG,6657,,,,,,,,,,,,,,,,,,,,,,,,,,,,,
ALB,6694,,,,,,,,,,,,,100.0,100.0,100.0,100.0,100.0,100.0,100.0,100.0,100.0,100.0,100.0,100.0,100.0,100.0,100.0,0.0,0.0
ALB,6657,,,,,,,,,,,,,,,,,,,,,,,,,,,,,
DZA,6694,,,,,,,,,,,,,,,,,,,,,,,,,,,,,
DZA,6657,,,,,,,,,,,,,,,,,,,,,,,,,,,,,
AGO,6694,,,,,,,,,,,,,,,,,,,,,,,,,,,,,
AGO,6657,,,,,,,,,,,,,,,,,,,,,,,,,,,,,
ATG,6694,,,,,,,,,,,,,,,,,,,,,,,,,,,,,
ATG,6657,,,,,,,,,,,,,,,,,,,,,,,,,,,,,
ARG,6694,,,,,,,,,,,,,,,,,,,,,,,,,,,,,
ARG,6657,,,,,,,,,,,,,,,,,,,,,,,,,,,,,
ARM,6694,,,,,,,,,,,,99.02534113060429,99.02975420439846,99.03784476117104,99.03660911424902,99.03350515463917,99.02975420439846,99.02849740932642,99.0272373540856,,,,,98.52216720464817,98.52216720464817,99.03784476117104,98.97452339305785,0.1696851810849806,0.028793060679842653
ARM,6657,,,,,,,,,,,,0.9746588693957114,0.9702457956015524,0.9630116846430405,0.9627785622593067,0.9664948453608249,0.9702457956015524,0.9715025906735751,0.972762645914397,100.0,100.0,100.0,100.0,0.9733253712072305,0.9627785622593067,100.0,31.44038662774286,47.57273883212255,2263.1654799893413
AUS,6694,,,,,,,100.0,100.0,100.0,100.0,100.0,57.46268656716418,60.11440457618305,59.15721231766613,71.2663259511641,60.07604562737642,65.46102903718798,64.549276039234,62.026913372582,60.55986109346546,57.55897817691127,62.505822077317184,63.41354723707665,62.010443864229764,57.46268656716418,100.0,72.5645858854199,17.781899229940116,316.1959402237449
AUS,6657,,,,,,,,,,,,,,,,,,,,,,,,,,,,,
AUT,6694,,,,,,,,,,,98.5387575,,98.53875681818181,,,99.43353474320242,98.53875820725092,98.53875631023406,98.53875695376941,98.5387561523322,98.53875747715522,97.64397905759161,98.53875747715522,98.53875798496956,97.64397905759161,99.43353474320242,98.53875715289477,0.40015681625521615,0.16012547759551082
AUT,6657,,,,,,,,,,,1.4612425000000002,,1.461243181818182,,,0.5664652567975831,1.4612417927490722,1.4612436897659478,1.4612430462305772,1.4612438476678098,1.4612425228448027,2.3560209424083767,1.4612425228448027,1.461242015030431,0.5664652567975831,2.3560209424083767,1.4612428471052352,0.4001568162552131,0.16012547759550838
AZE,6694,,,,,,,96.6268446943078,96.69711876317639,96.69711876317639,96.35854341736695,96.36363636363636,96.35981799089954,96.36261891438166,96.50227352221056,96.63961270112488,96.63369155220269,96.67521002420618,96.70431138575182,96.71922505833275,96.87522042745292,96.03074772886093,96.88663996064375,96.95782921882649,97.0069071373753,96.03074772886093,97.0069071373753,96.61652042355185,0.24987728517185692,0.06243865764485751
AZE,6657,,,,,,,3.3731553056921997,3.302881236823612,3.302881236823612,3.641456582633053,3.6363636363636362,3.640182009100455,3.637381085618355,3.497726477789437,3.360387298875125,3.36630844779731,3.3247899757938204,3.2956886142481707,3.280774941667256,3.1247795725470833,3.0957372466806428,3.113360039356244,3.0421707811735086,2.9930928626247124,2.9930928626247124,3.641456582633053,3.334950963978235,0.21126129713594521,0.04463133566756213
BHS,6694,,,,,,,,,,,,,,,,,,,,,,,,,,,,,
BHS,6657,,,,,,,,,,,,,,,,,,,,,,,,,,,,,
BHR,6694,,,,,,,,,,,,,,,,,,,,,,,,,,,,,
BHR,6657,,,,,,,,,,,,,,,,,,,,,,,,,,,,,
BGD,6694,,,,,,,,,,100.0,100.0,100.0,,,,,,,100.0,100.0,100.0,100.0,100.0,,100.0,100.0,100.0,0.0,0.0
BGD,6657,,,,,,,,,,,,,,,,,,,,,,,,,,,,,
BRB,6694,,,,,,,,,,,,,,,,,,,,,,,,,,,,,
BRB,6657,,,,,,,,,,,,,,,,,,,,,,,,,,,,,
BLR,6694,,,,,,,,82.43224695652174,82.43224736842106,82.43224736842106,82.43224736842106,82.43224684684685,82.43224684684685,82.43224716981132,82.43224680851064,82.43224666666667,82.43224836601306,82.43224666666667,82.77027027027026,83.16498316498317,83.44370860927152,81.84818481848184,81.51815181518151,81.84818481848184,81.51815181518151,83.44370860927152,82.43224717234219,0.44665729846959723,0.19950274227615886
BLR,6657,,,,,,,,17.56775304347826,17.567752631578948,17.567752631578948,17.567752631578948,17.567753153153152,17.567753153153152,17.56775283018868,17.56775319148936,17.567753333333332,17.56775163398693,17.567753333333332,17.229729729729726,16.835016835016834,16.55629139072848,18.151815181518153,18.48184818481848,18.151815181518153,16.55629139072848,18.48184818481848,17.567752827657813,0.44665729846959495,0.19950274227615683
BEL,6694,,,,,,,,,,,,,,,,,,,,,,,,,,,,,
BEL,6657,,,,,,,,,,,,,,,,,,,,,,,,,,,,,
BLZ,6694,,,,,,,,,,,,,,,,,,,,,,,,,,,,,
BLZ,6657,,,,,,,,,,,,,,,,,,,,,,,,,,,,,
BEN,6694,,,,,,,,,,,,,,,,,,,,,,,,,,,,,
BEN,6657,,,,,,,,,,,,,,,,,,,,,,,,,,,,,
BTN,6694,,,,,,,,,,,,,,,,,,,,,,,,,,,,,
BTN,6657,,,,,,,,,,,,,,,,,,,,,,,,,,,,,
BOL,6694,,,,,,,,,,,,,,,,,,,,,,,,,,,,,
BOL,6657,,,,,,,,,,,,,,,,,,,,,,,,,,,,,
BIH,6694,,,,,,,,,,,,,,,,,,,,,,,,,,,,,
BIH,6657,,,,,,,,,,,,,,,,,,,,,,,,,,,,,
BWA,6694,,,,,,,,,100.0,100.0,,100.0,100.0,100.0,100.0,100.0,100.0,100.0,100.0,100.0,,,,,100.0,100.0,100.0,0.0,0.0
BWA,6657,,,,,,,,,,,,,,,,,,,,,,,,,,,,,
BRA,6694,,,,,,,,,,,,,,,,,,,,,,,,,,,,,
BRA,6657,,,,,,,,,,,,,,,,,,,,,,,,,,,,,
BRN,6694,,,,,,,,,,,,,,,,,,,,,,,,,,,,,
BRN,6657,,,,,,,,,,,,,,,,,,,,,,,,,,,,,
BGR,6694,,,,,,,,,,,96.85743333333332,,96.85743287671234,,,95.55555555555556,,,96.8574336372847,,,98.15931108719052,,,95.55555555555556,98.15931108719052,96.85743329801528,0.9205665964855722,0.8474428585650302
BGR,6657,,,,,,,,,,,3.1425666666666667,,3.1425671232876717,,,4.444444444444445,,,3.142566362715299,,,1.8406889128094723,,,1.8406889128094723,4.444444444444445,3.1425667019847108,0.9205665964855766,0.8474428585650384
BFA,6694,,,,,,,,,,,,,,,,,,,,,,,,,,,,,
BFA,6657,,,,,,,,,,,,,,,,,,,,,,,,,,,,,
BDI,6694,,,,,,,,,,,,,,,,,,,,,,,,,,,,,
BDI,6657,,,,,,,,,,,,,,,,,,,,,,,,,,,,,
CPV,6694,,,,,,,,,,,,,,,,,,,,,,,,,,,,,
CPV,6657,,,,,,,,,,,,,,,,,,,,,,,,,,,,,
KHM,6694,,,,,,,,,,,,,,,,,,,,,,,,,,,,,
KHM,6657,,,,,,,,,,,,,,,,,,,,,,,,,,,,,
CMR,6694,,,,,,,,,,,,,,,,,,,,,,,,,,,,,
CMR,6657,,,,,,,,,,,,,,,,,,,,,,,,,,,,,
CAN,6694,,,,,,,,,,,,,,,,,,,,,,,,,,,,,
CAN,6657,,,,,,,,,,,,,,,,,,,,,,,,,,,,,
CAF,6694,,,,,,,,,,,,,,,,,,,,,,,,,,,,,
CAF,6657,,,,,,,,,,,,,,,,,,,,,,,,,,,,,
TCD,6694,,,,,,,,,,,,,,,,,,,,,,,,,,,,,
TCD,6657,,,,,,,,,,,,,,,,,,,,,,,,,,,,,
CHL,6694,,,,,,,,,,,,,,,,,,,,,,,,,,,,,
CHL,6657,,,,,,,,,,,,,,,,,,,,,,,,,,,,,
CHN,6694,,,,,,,,,,,,,,,,,,,,,,,,,,,,,
CHN,6657,,,,,,,,,,,,,,,,,,,,,,,,,,,,,
HKG,6694,,,,,,,,,,,,,,,,,,,,,,,,,,,,,
HKG,6657,,,,,,,,,,,,,,,,,,,,,,,,,,,,,
MAC,6694,,,,,,,,,,,,,,,,,,,,,,,,,,,,,
MAC,6657,,,,,,,,,,,,,,,,,,,,,,,,,,,,,
TWN,6694,,,,,,,,,,,,,,,,,,,,,,,,,,,,,
TWN,6657,,,,,,,,,,,,,,,,,,,,,,,,,,,,,
COL,6694,,,,,,,,,,,,,,,,,,,,,,,,,,,,,
COL,6657,,,,,,,,,,,,,,,,,,,,,,,,,,,,,
COM,6694,,,,,,,,,,,,,,,,,,,,,,,,,,,,,
COM,6657,,,,,,,,,,,,,,,,,,,,,,,,,,,,,
COG,6694,,,,,,,,,,,,,,,,,,,,,,,,,,,,,
COG,6657,,,,,,,,,,,,,,,,,,,,,,,,,,,,,
COK,6694,,,,,,,,,,,,,,,,,,,,,,,,,,,,,
COK,6657,,,,,,,,,,,,,,,,,,,,,,,,,,,,,
CRI,6694,,,,,,,,,,,,,,,,,,,,,,,,,,,,,
CRI,6657,,,,,,,,,,,,,,,,,,,,,,,,,,,,,
CIV,6694,,,,,,,,,,,,,,,,,,,,,,,,,,,,,
CIV,6657,,,,,,,,,,,,,,,,,,,,,,,,,,,,,
HRV,6694,,,,,,,,,,100.0,100.0,100.0,100.0,,100.0,100.0,,,100.0,,,100.0,,,100.0,100.0,100.0,0.0,0.0
HRV,6657,,,,,,,,,,,,,,,,,,,,,,,,,,,,,
CUB,6694,,,,,,,,,,,,,,,,,,,,,,,,,,,,,
CUB,6657,,,,,,,,,,,,,,,,,,,,,,,,,,,,,
CYP,6694,,,,,,,100.0,100.0,100.0,100.0,100.0,100.0,100.0,100.0,100.0,102.0,100.0,101.63265306122449,100.0,100.0,100.0,100.0,100.0,,100.0,102.0,100.21368547418967,0.606697557806367,0.36808192664821004
CYP,6657,,,,,,,,,,,,,,,,-2.0,,-1.6326530612244898,,,,,,,-2.0,-1.6326530612244898,-1.816326530612245,0.2597535114562827,0.06747188671386921
CZE,6694,,,,,,,,,,,,,,,,,,,,,,,,,,,,,
CZE,6657,,,,,,,,,,,,,,,,,,,,,,,,,,,,,
PRK,6694,,,,,,,,,,,,,,,,,,,,,,,,,,,,,
PRK,6657,,,,,,,,,,,,,,,,,,,,,,,,,,,,,
COD,6694,,,,,,,,,,,,,,,,,,,,,,,,,,,,,
COD,6657,,,,,,,,,,,,,,,,,,,,,,,,,,,,,
DNK,6694,,,,,,,,74.09416176470587,74.0941617866005,74.09416176470587,74.09416145038168,74.09416145038168,74.09416141732284,74.09416141732284,74.09416141732284,74.09416144200628,,,74.09416157024793,,73.97260273972603,74.07407407407408,74.23580786026201,74.0941614213198,73.97260273972603,74.23580786026201,74.09416154117002,0.05206780213956912,0.0027110560196453187
DNK,6657,,,,,,,,25.90583823529412,25.9058382133995,25.90583823529412,25.905838549618316,25.905838549618316,25.905838582677166,25.905838582677166,25.905838582677166,25.90583855799373,,,25.90583842975207,,26.027397260273972,25.925925925925927,25.76419213973799,25.905838578680203,25.76419213973799,26.027397260273972,25.905838458829983,0.05206780213956848,0.002711056019645252
DJI,6694,,,,,,,,,,,,,,,,,,,,,,,,,,,,,
DJI,6657,,,,,,,,,,,,,,,,,,,,,,,,,,,,,
DMA,6694,,,,,,,,,,,,,,,,,,,,,,,,,,,,,
DMA,6657,,,,,,,,,,,,,,,,,,,,,,,,,,,,,
DOM,6694,,,,,,,100.0,100.0,100.0,100.0,100.0,100.0,100.0,100.0,100.0,100.0,100.0,,,,,,,100.0,100.0,100.0,100.0,0.0,0.0
DOM,6657,,,,,,,,,,,,,,,,,,,,,,,,,,,,,
ECU,6694,,,,,,,,100.0,100.0,100.0,100.0,100.0,100.0,100.0,100.0,93.73673036093419,100.0,100.0,100.0,100.0,100.0,100.0,100.0,100.0,93.73673036093419,100.0,99.6315723741726,1.5190660166819139,2.307561563037857
ECU,6657,,,,,,,,,,,,,,,,,,,,,,,,,,,,,
EGY,6694,,,,,,,,,,,,,,,,,,,,,,,,,,,,,
EGY,6657,,,,,,,,,,,,,,,,,,,,,,,,,,,,,
SLV,6694,,,,,,,,,100.0,100.0,100.0,100.0,97.6,99.28571428571429,99.68253968253968,99.41176470588233,100.0,98.98477157360406,95.1219512195122,100.0,,100.0,,74.8878923766816,74.8878923766816,100.0,97.49818813170957,6.647926959142886,44.194932854098774
SLV,6657,,,,,,,,,,,,,2.4,0.7142857142857143,0.31746031746031744,0.5882352941176471,,1.015228426395939,4.878048780487805,,,,,25.112107623318384,0.31746031746031744,25.112107623318384,5.003623736580829,9.00839654954218,81.15120839380346
GNQ,6694,,,,,,,,,,,,,,,,,,,,,,,,,,,,,
GNQ,6657,,,,,,,,,,,,,,,,,,,,,,,,,,,,,
ERI,6694,,,,,,,,,,,,,,,,,,,,,,,,,,,,,
ERI,6657,,,,,,,,,,,,,,,,,,,,,,,,,,,,,
EST,6694,,,,,,,,,,,,,,,,,,,,,,,,,,,,,
EST,6657,,,,,,,,,,,,,,,,,,,,,,,,,,,,,
SWZ,6694,,,,,,,,,,,,,,,,,,,,,,,,,,,,,
SWZ,6657,,,,,,,,,,,,,,,,,,,,,,,,,,,,,
ETH,6694,,,,,,,67.67676767676768,100.0,100.0,100.0,100.0,100.0,100.0,100.0,100.0,100.0,100.0,,,,,,99.99999999999999,100.0,67.67676767676768,100.0,97.51359751359752,8.964851656165317,80.36856521705003
ETH,6657,,,,,,,,,,,,,,,,,,,,,,,,,,,,,
FRO,6694,,,,,,,,,,,,,,,,,,,,,,,,,,,,,
FRO,6657,,,,,,,,,,,,,,,,,,,,,,,,,,,,,
FJI,6694,,,,,,,,,,,,,,,,,,,,,,,,,,,,,
FJI,6657,,,,,,,,,,,,,,,,,,,,,,,,,,,,,
FIN,6694,,,,,,,,,,,,,,,,100.0,,,100.0,100.0,100.0,100.0,,,100.0,100.0,100.0,0.0,0.0
FIN,6657,,,,,,,,,,,,,,,,,,,,,,,,,,,,,
FRA,6694,,,,,,,,,,,,,,,,,,,,,,,,,,,,,
FRA,6657,,,,,,,,,,,,,,,,,,,,,,,,,,,,,
GUF,6694,,,,,,,,,,,,,,,,,,,,,,,,,,,,,
GUF,6657,,,,,,,,,,,,,,,,,,,,,,,,,,,,,
PYF,6694,,,,,,,,,,,,,,,,,,,,,,,,,,,,,
PYF,6657,,,,,,,,,,,,,,,,,,,,,,,,,,,,,
GAB,6694,,,,,,,,,,,,,,,,,,,,,,,,,,,,,
GAB,6657,,,,,,,,,,,,,,,,,,,,,,,,,,,,,
GMB,6694,,,,,,,,,,,,,,,,,,,,,,,,,,,,,
GMB,6657,,,,,,,,,,,,,,,,,,,,,,,,,,,,,
GEO,6694,,,,,,,,,,,,68.0,100.0,100.0,,,,,,,,,,,68.0,100.0,89.33333333333333,18.475208614068027,341.33333333333337
GEO,6657,,,,,,,,,,,,,,,,,,,,,,,,,,,,,
DEU,6694,,,,,,,,,,,,,,,98.38709678284182,,,,98.39128309628008,,,98.3913492695883,,,98.38709678284182,98.3913492695883,98.38990971623673,0.002436296459759476,5.935540439836556e-06
DEU,6657,,,,,,,,,,,,,,,1.608648525469169,,,,1.6086496170678335,,,1.6086496237273127,,,1.608648525469169,1.6086496237273127,1.6086492554214384,6.321659781384223e-07,3.9963382391570826e-13
GHA,6694,,,,,,,,,,,,,,,,,,,,,,,,,,,,,
GHA,6657,,,,,,,,,,,,,,,,,,,,,,,,,,,,,
GRC,6694,,,,,,,,,100.0,,100.0,100.0,100.0,100.0,100.0,100.0,100.0,100.0,100.0,100.0,100.0,100.0,100.0,,100.0,100.0,100.0,0.0,0.0
GRC,6657,,,,,,,,,,,,,,,,,,,,,,,,,,,,,
GRD,6694,,,,,,,,,,,,,,,,,,,,,,,,,,,,,
GRD,6657,,,,,,,,,,,,,,,,,,,,,,,,,,,,,
GLP,6694,,,,,,,,,,,,,,,,,,,,,,,,,,,,,
GLP,6657,,,,,,,,,,,,,,,,,,,,,,,,,,,,,
GTM,6694,,,,,,,,,,,,,,,,,,,,,,,,,,,,,
GTM,6657,,,,,,,,,,,,,,,,,,,,,,,,,,,,,
GIN,6694,,,,,,,,,,,,,,,,,,,,,,,,,,,,,
GIN,6657,,,,,,,,,,,,,,,,,,,,,,,,,,,,,
GNB,6694,,,,,,,,,,,,,,,,,,,,,,,,,,,,,
GNB,6657,,,,,,,,,,,,,,,,,,,,,,,,,,,,,
GUY,6694,,,,,,,,,,,,,,,,,,,,,,,,,,,,,
GUY,6657,,,,,,,,,,,,,,,,,,,,,,,,,,,,,
HTI,6694,,,,,,,,,,,,,,,,,,,,,,,,,,,,,
HTI,6657,,,,,,,,,,,,,,,,,,,,,,,,,,,,,
HND,6694,,,,,,,,,,,,,,,,,,,,,,,,,,,,,
HND,6657,,,,,,,,,,,,,,,,,,,,,,,,,,,,,
HUN,6694,,,,,,,,,99.32885906040268,99.33288859239492,99.52063914780292,99.66632443531827,99.66912068822897,99.78760619690154,99.896974522293,99.77628730512251,99.80217606330366,99.89585817307693,99.57912457912458,99.97986306886831,99.72106194690267,99.79529170931423,99.90138067061143,99.88372093023256,99.32885906040268,99.97986306886831,99.7210735681187,0.1962190199657963,0.03850190379633756
HUN,6657,,,,,,,,,0.6711409395973155,0.66711140760507,0.4793608521970706,0.3336755646817248,0.3308793117710315,0.21239380309845077,0.10303484451105283,0.2227193763919822,0.19782393669634027,0.10416666666666667,0.4208754208754209,0.02013693113169553,0.27886162510056317,0.20470829068577276,0.09861932938856015,0.11627906976744186,0.02013693113169553,0.6711409395973155,0.278861710635385,0.19623577529033887,0.03850847950380037
ISL,6694,,,,,,,,,,,,,,,,,,,,,,,,,,,,,
ISL,6657,,,,,,,,,,,,,,,,,,,,,,,,,,,,,
IND,6694,,,,,,,,,,,,,,,,,,,,,,,,,,,,,
IND,6657,,,,,,,,,,,,,,,,,,,,,,,,,,,,,
IDN,6694,,,,,,,,,,,,,,,,,,,,,,,,,,,,,
IDN,6657,,,,,,,,,,,,,,,,,,,,,,,,,,,,,
IRN,6694,,,,,,,,,,,,,,100.0,100.0,100.0,100.0,100.0,100.0,100.0,100.0,100.0,,,100.0,100.0,100.0,0.0,0.0
IRN,6657,,,,,,,,,,,,,,,,,,,,,,,,,,,,,
IRQ,6694,,,,,,,,,,,,,,,,,,,,,,,,,,,,,
IRQ,6657,,,,,,,,,,,,,,,,,,,,,,,,,,,,,
IRL,6694,,,,,,,,,,,,,,,,,,,,,,,,,,,,,
IRL,6657,,,,,,,,,,,,,,,,,,,,,,,,,,,,,
ISR,6694,,,,,,,100.0,100.0,,,,100.0,100.0,,100.0,100.0,,,100.0,100.0,100.0,100.0,100.0,100.0,100.0,100.0,100.0,0.0,0.0
ISR,6657,,,,,,,,,,,,,,,,,,,,,,,,,,,,,
ITA,6694,,,,,,,,,,,,,,,,,,,,,,,,,,,,,
ITA,6657,,,,,,,,,,,,,,,,,,,,,,,,,,,,,
JAM,6694,,,,,,,,,,,,,,,,,,,,,,,,,,,,,
JAM,6657,,,,,,,,,,,,,,,,,,,,,,,,,,,,,
JPN,6694,,,,,,,100.0,100.0,100.0,100.0,100.0,100.0,100.0,100.0,100.0,100.0,100.0,100.0,100.0,100.0,,,,,100.0,100.0,100.0,0.0,0.0
JPN,6657,,,,,,,,,,,,,,,,,,,,,,,,,,,,,
JOR,6694,,,,,,,100.0,100.0,100.0,100.0,100.0,110.23622047244093,100.0,100.0,100.0,100.0,100.0,100.0,100.0,100.0,100.0,100.0,100.0,100.0,100.0,110.23622047244093,100.5686789151356,2.4127003032611833,5.8211227533566055
JOR,6657,,,,,,,,,,,,,,,,,,,,,,,,,,,,,
KAZ,6694,,,,,,,,,,,,,,,,,,,,,,,,,,,,,
KAZ,6657,,,,,,,,,,,,,,,,,,,,,,,,,,,,,
KEN,6694,,,,,,,,,,,,,,,,,,,,,,,,,,,,,
KEN,6657,,,,,,,,,,,,,,,,,,,,,,,,,,,,,
KIR,6694,,,,,,,,,,,,,,,,,,,,,,,,,,,,,
KIR,6657,,,,,,,,,,,,,,,,,,,,,,,,,,,,,
KWT,6694,,,,,,,,,,,,,,,,,,,,,,,,,,,,,
KWT,6657,,,,,,,,,,,,,,,,,,,,,,,,,,,,,
KGZ,6694,,,,,,,6.134371957156767,93.93939396299902,95.52238802336903,97.18309863147604,97.18309860139861,97.02127660426468,96.58002732185749,96.45293317972349,,,,,,93.51011863224005,93.51076555023923,93.5532084495815,97.02448595337718,97.03543022213368,6.134371957156767,97.18309863147604,88.81927669921667,24.89122567223513,619.5731154661372
KGZ,6657,,,,,,,0.48685491723466406,0.41290000000000004,0.304873417721519,0.20076627565982402,0.20516973026973023,0.2162172389628592,0.2583905124099279,0.26932027649769585,100.0,100.0,100.0,100.0,100.0,6.489881367759943,6.489234449760764,6.446791550418493,2.8721539151225346,2.861876083275227,0.20076627565982402,100.0,29.306357207505172,45.16862006168327,2040.2042382766967
LAO,6694,,,,,,,,,,,,,,,,,,,,,,,,,,,,,
LAO,6657,,,,,,,,,,,,,,,,,,,,,,,,,,,,,
LVA,6694,,,,,,,,,,,,,,,,,,,,,,,,,,,,,
LVA,6657,,,,,,,,,,,,,,,,,,,,,,,,,,,,,
LBN,6694,,,,,,,,,,,,,,,,,,,,,,,,,,,,,
LBN,6657,,,,,,,,,,,,,,,,,,,,,,,,,,,,,
LSO,6694,,,,,,,,,,,,,,,,,,,,,,,,,,,,,
LSO,6657,,,,,,,,,,,,,,,,,,,,,,,,,,,,,
LBR,6694,,,,,,,,,,,,,,,,,,,,,,,,,,,,,
LBR,6657,,,,,,,,,,,,,,,,,,,,,,,,,,,,,
LBY,6694,,,,,,,,,,,,,,,,,,,,,,,,,,,,,
LBY,6657,,,,,,,,,,,,,,,,,,,,,,,,,,,,,
LTU,6694,,,,,,,,,,,,,,,,,,,,,,,,,,,,,
LTU,6657,,,,,,,,,,,,,,,,,,,,,,,,,,,,,
LUX,6694,,,,,,,,,,,,,,,,,,,,,,,,,,,,,
LUX,6657,,,,,,,,,,,,,,,,,,,,,,,,,,,,,
MDG,6694,,,,,,,,,,,,,,,,,,,,,,,,,,,,,
MDG,6657,,,,,,,,,,,,,,,,,,,,,,,,,,,,,
MWI,6694,,,,,,,,,,,,,,,,,,,,,,,,,,,,,
MWI,6657,,,,,,,,,,,,,,,,,,,,,,,,,,,,,
MYS,6694,,,,,,,,,,,,,,,,,,,100.0,100.0,100.0,100.0,100.15105747745548,100.0,100.0,100.15105747745548,100.02517624624257,0.0616689569329837,0.003803060249202199
MYS,6657,,,,,,,,,,,,,,,,,,,,,,,,,,,,,
MDV,6694,,,,,,,,,,,,,,,,,,,,,,,,,,,,,
MDV,6657,,,,,,,,,,,,,,,,,,,,,,,,,,,,,
MLI,6694,,,,,,,,,,,,,,,,,,,,,,,,,,,,,
MLI,6657,,,,,,,,,,,,,,,,,,,,,,,,,,,,,
MLT,6694,,,,,,,,,100.0,,100.0,,100.0,100.0,100.0,100.0,100.0,100.0,100.0,100.0,100.0,100.0,100.0,100.0,100.0,100.0,100.0,0.0,0.0
MLT,6657,,,,,,,,,,,,,,,,,,,,,,,,,,,,,
MHL,6694,,,,,,,,,,,,,,,,,,,,,,,,,,,,,
MHL,6657,,,,,,,,,,,,,,,,,,,,,,,,,,,,,
MTQ,6694,,,,,,,,,,,,,,,,,,,,,,,,,,,,,
MTQ,6657,,,,,,,,,,,,,,,,,,,,,,,,,,,,,
MRT,6694,,,,,,,,,,,,,,,,,,,,,,,,,,,,,
MRT,6657,,,,,,,,,,,,,,,,,,,,,,,,,,,,,
MUS,6694,,,,,,,,,,,,,,,,,,,,,,,,,,,,,
MUS,6657,,,,,,,,,,,,,,,,,,,,,,,,,,,,,
MEX,6694,,,,,,,,,,,,,,,,,,,,,,,,,,,,,
MEX,6657,,,,,,,,,,,,,,,,,,,,,,,,,,,,,
FSM,6694,,,,,,,,,,,,,,,,,,,,,,,,,,,,,
FSM,6657,,,,,,,,,,,,,,,,,,,,,,,,,,,,,
MNG,6694,,,,,,,,,,,,,,,,,,,,,100.0,100.0,100.0,100.0,100.0,100.0,100.0,0.0,0.0
MNG,6657,,,,,,,,,,,,,,,,,,,,,,,,,,,,,
MNE,6694,,,,,,,,,,,,,,,,,,,,,,,,,,,,,
MNE,6657,,,,,,,,,,,,,,,,,,,,,,,,,,,,,
MAR,6694,,,,,,,,,,,,,,,,,,,,,,,,,,,,,
MAR,6657,,,,,,,,,,,,,,,,,,,,,,,,,,,,,
MOZ,6694,,,,,,,,,,,,,,,,,,,,,,,,,,,,,
MOZ,6657,,,,,,,,,,,,,,,,,,,,,,,,,,,,,
MMR,6694,,,,,,,,,,,,,,,,,,,,,,,,,,,,,
MMR,6657,,,,,,,,,,,,,,,,,,,,,,,,,,,,,
NAM,6694,,,,,,,,,,,,,,,,,,,,,,,,,,,,,
NAM,6657,,,,,,,,,,,,,,,,,,,,,,,,,,,,,
NRU,6694,,,,,,,,,,,,,,,,,,,,,,,,,,,,,
NRU,6657,,,,,,,,,,,,,,,,,,,,,,,,,,,,,
NPL,6694,,,,,,,,,,,,,,,,,,,,,,,,,,,,,
NPL,6657,,,,,,,,,,,,,,,,,,,,,,,,,,,,,
NLD,6694,,,,,,,,,,,,,,,,,,,,,,,,,,,,,
NLD,6657,,,,,,,,,,,,,,,,,,,,,,,,,,,,,
NCL,6694,,,,,,,,,,,,,,,,,,,,,,,,,,,,,
NCL,6657,,,,,,,,,,,,,,,,,,,,,,,,,,,,,
NZL,6694,,,,,,,,,,,,,,,,,,,,,,,,,,,,,
NZL,6657,,,,,,,,,,,,,,,,,,,,,,,,,,,,,
NIC,6694,,,,,,,,,,,,,,,,,,,,,,,,,,,,,
NIC,6657,,,,,,,,,,,,,,,,,,,,,,,,,,,,,
NER,6694,,,,,,,,,,,,,,,,,,,,,,,,,,,,,
NER,6657,,,,,,,,,,,,,,,,,,,,,,,,,,,,,
NGA,6694,,,,,,,,,,,,,,,,,,,,,,,,,,,,,
NGA,6657,,,,,,,,,,,,,,,,,,,,,,,,,,,,,
NIU,6694,,,,,,,,,,,,,,,,,,,,,,,,,,,,,
NIU,6657,,,,,,,,,,,,,,,,,,,,,,,,,,,,,
MKD,6694,,,,,,,,,,,,,,,,,,,98.23369565217392,97.66364220133332,97.66364180979082,97.09358789113391,97.66364220577144,97.66364186033516,97.09358789113391,98.23369565217392,97.6636419367564,0.36053373029220315,0.12998457067841107
MKD,6657,,,,,,,,,,,,,,,,,,,1.7663043478260871,2.3363577986666804,2.33635819020919,2.9064121088660966,2.336357794228571,2.336358139664843,1.7663043478260871,2.9064121088660966,2.336358063243578,0.36053373029220176,0.1299845706784101
NOR,6694,,,,,,,,,,,,,,,,,,,,,,,,,,,,,
NOR,6657,,,,,,,,,,,,,,,,,,,,,,,,,,,,,
OMN,6694,,,,,,,,,,,,,,,,,,,98.95311117664407,98.9674229203025,99.14220128065725,99.1601608705938,99.0557243361078,99.0557243361078,98.95311117664407,99.1601608705938,99.0557241534022,0.08568763294922174,0.007342370440440551
OMN,6657,,,,,,,,,,,,,,,,,,,1.0468888233559424,1.0325770796974985,0.8577987193427571,0.8398391294061982,0.9442756638921919,0.9442756638921919,0.8398391294061982,1.0468888233559424,0.9442758465977966,0.0856876329492239,0.007342370440440921
PAK,6694,,,,,,,,,,,,,,,,,,,,,,,,,,,,,
PAK,6657,,,,,,,,,,,,,,,,,,,,,,,,,,,,,
PSE,6694,,,,,,,100.0,100.0,100.0,100.0,100.0,100.0,100.0,100.0,,100.0,100.0,100.0,100.0,,,100.0,100.0,100.0,100.0,100.0,100.0,0.0,0.0
PSE,6657,,,,,,,,,,,,,,,,,,,,,,,,,,,,,
PAN,6694,,,,,,,,,,,,,,,,,,,,,,,,,,,,,
PAN,6657,,,,,,,,,,,,,,,,,,,,,,,,,,,,,
PNG,6694,,,,,,,,,,,,,,,,,,,,,,,,,,,,,
PNG,6657,,,,,,,,,,,,,,,,,,,,,,,,,,,,,
PRY,6694,,,,,,,,,,,,,,,,,,,,,,,,,,,,,
PRY,6657,,,,,,,,,,,,,,,,,,,,,,,,,,,,,
PER,6694,,,,,,,,,,,,,,,,,,,,,,,,,,,,,
PER,6657,,,,,,,,,,,,,,,,,,,,,,,,,,,,,
PHL,6694,,,,,,,,,,,,,,,,,,,,,,,,,,,,,
PHL,6657,,,,,,,,,,,,,,,,,,,,,,,,,,,,,
POL,6694,,,,,,,,,,,,,,,,,,,,,,,,,,,,,
POL,6657,,,,,,,,,,,,,,,,,,,,,,,,,,,,,
PRT,6694,,,,,,,,,,,,,,,,,,,,,,,,,,,,,
PRT,6657,,,,,,,,,,,,,,,,,,,,,,,,,,,,,
PRI,6694,,,,,,,,,,,,,,,,,,,,,,,,,,,,,
PRI,6657,,,,,,,,,,,,,,,,,,,,,,,,,,,,,
QAT,6694,,,,,,,,,,,,,,,,100.0,100.0,,,,100.0,100.0,100.0,100.0,100.0,100.0,100.0,0.0,0.0
QAT,6657,,,,,,,,,,,,,,,,,,,,,,,,,,,,,
KOR,6694,,,,,,,,,,,,,,,,,,,,,,,,,,,,,
KOR,6657,,,,,,,,,,,,,,,,,,,,,,,,,,,,,
MDA,6694,,,,,,,,,,,,,,,,,,,,99.38569548047388,99.38569548047388,99.38569548047388,99.38569548047388,99.50495049504951,99.38569548047388,99.50495049504951,99.40954648338901,0.053332463849766754,0.0028443517002866778
MDA,6657,,,,,,,,,,,,,,,,,,,,0.6581834137779727,0.6581834137779727,0.6581834137779727,0.6581834137779727,0.49504950495049516,0.49504950495049516,0.6581834137779727,0.6255566320124772,0.07295570191469858,0.005322534441866354
REU,6694,,,,,,,,,,,,,,,,,,,,,,,,,,,,,
REU,6657,,,,,,,,,,,,,,,,,,,,,,,,,,,,,
ROU,6694,,,,,,,100.0,100.0,100.0,100.0,100.0,100.0,100.0,100.0,100.0,100.0,99.90338164251207,99.81916817359856,99.94472084024322,100.0,100.0,100.0,99.29245283018868,99.70037453183521,99.29245283018868,100.0,99.92556100102098,0.17752356900452654,0.03151461755210489
ROU,6657,,,,,,,,,,,,,0.09375,,,,0.0966183574879227,0.18083182640144665,0.055279159756771695,,,,0.7075471698113207,0.299625468164794,0.055279159756771695,0.7075471698113207,0.23894199693704263,0.2456496919298591,0.06034377114523468
RUS,6694,,,,,,,,,,,,,,,,,,,,,,,,,,,,,
RUS,6657,,,,,,,7.310006685981725,100.0,100.0,100.0,100.0,100.0,100.0,100.0,,,,,,,,,,,7.310006685981725,100.0,88.41375083574772,32.77086141023904,1073.9293575690942
RWA,6694,,,,,,,,,,,,,,,,,,,,,,,,,,,,,
RWA,6657,,,,,,,,,,,,,,,,,,,,,,,,,,,,,
KNA,6694,,,,,,,,,,,,,,,,,,,,,,,,,,,,,
KNA,6657,,,,,,,,,,,,,,,,,,,,,,,,,,,,,
LCA,6694,,,,,,,,,,,,,,,,,,,,,,,,,,,,,
LCA,6657,,,,,,,,,,,,,,,,,,,,,,,,,,,,,
VCT,6694,,,,,,,,,,,,,,,,,,,,,,,,,,,,,
VCT,6657,,,,,,,,,,,,,,,,,,,,,,,,,,,,,
WSM,6694,,,,,,,,,,,,,,,,,,,,,,,,,,,,,
WSM,6657,,,,,,,,,,,,,,,,,,,,,,,,,,,,,
STP,6694,,,,,,,,,,,,,,,,,,,,,,,,,,,,,
STP,6657,,,,,,,,,,,,,,,,,,,,,,,,,,,,,
SAU,6694,,,,,,,,,,,,,,,,,,,,,,,,,,,,,
SAU,6657,,,,,,,,,,,,,,,,,,,,,,,,,,,,,
SEN,6694,,,,,,,,100.0,100.0,100.0,100.0,100.0,,,,,,,,,,,,,100.0,100.0,100.0,0.0,0.0
SEN,6657,,,,,,,,,,,,,,,,,,,,,,,,,,,,,
SRB,6694,,,,,,,,,,,,100.0,100.0,100.0,100.0,100.0,100.0,100.0,100.0,100.0,100.0,100.0,100.0,100.0,100.0,100.0,100.0,0.0,0.0
SRB,6657,,,,,,,,,,,,,,,,,,,,,,,,,,,,,
SYC,6694,,,,,,,,,,,,,,,,,,,,,,,,,,,,,
SYC,6657,,,,,,,,,,,,,,,,,,,,,,,,,,,,,
SLE,6694,,,,,,,,,,,,,,,,,,,,,,,,,,,,,
SLE,6657,,,,,,,,,,,,,,,,,,,,,,,,,,,,,
SGP,6694,,,,,,,,,,,,,,,,,,,,,,,,,,,,,
SGP,6657,,,,,,,,,,,,,,,,,,,,,,,,,,,,,
SVK,6694,,,,,,,100.0,100.0,100.0,100.0,100.0,100.0,100.0,100.0,100.0,100.0,100.0,100.0,100.0,100.0,100.0,100.0,100.0,100.0,100.0,100.0,100.0,0.0,0.0
SVK,6657,,,,,,,,,,,,,,,,,,,,,,,,,,,,,
SVN,6694,,,,,,,100.0,100.0,100.0,100.0,100.0,100.0,100.0,100.0,100.0,100.0,100.0,100.0,100.0,100.0,100.0,100.0,100.0,100.0,100.0,100.0,100.0,0.0,0.0
SVN,6657,,,,,,,,,,,,,,,,,,,,,,,,,,,,,
SLB,6694,,,,,,,,,,,,,,,,,,,,,,,,,,,,,
SLB,6657,,,,,,,,,,,,,,,,,,,,,,,,,,,,,
SOM,6694,,,,,,,,,,,,,,,,,,,,,,,,,,,,,
SOM,6657,,,,,,,,,,,,,,,,,,,,,,,,,,,,,
ZAF,6694,,,,,,,,,,,,,,,,,,,,,,,,,,,,,
ZAF,6657,,,,,,,,,,,,,,,,,,,,,,,,,,,,,
SSD,6694,,,,,,,,,,,,,,,,,,,,,,,,,,,,,
SSD,6657,,,,,,,,,,,,,,,,,,,,,,,,,,,,,
ESP,6694,,,,,,,,,,,,,,,,,,,,,,,,,,,,,
ESP,6657,,,,,,,,,,,,,,,,,,,,,,,,,,,,,
LKA,6694,,,,,,,,,,,,,,,,,,,,,,,,,,,,,
LKA,6657,,,,,,,,,,,,,,,,,,,,,,,,,,,,,
SUR,6694,,,,,,,,,,,,,,,,,,,,,,,,,,,,,
SUR,6657,,,,,,,,,,,,,,,,,,,,,,,,,,,,,
SWE,6694,,,,,,,,,,,,,,,,,,,,,,,,,,,,,
SWE,6657,,,,,,,,,,,,,,,,,,,,,,,,,,,,,
CHE,6694,,,,,,,,,,,,,,,,,,,93.54227425646168,,,94.72672929120411,,,93.54227425646168,94.72672929120411,94.1345017738329,0.8375361870769182,0.7014668646633425
CHE,6657,,,,,,,,,,,,,,,,,,,6.457338013305268,,,5.273270708795901,,,5.273270708795901,6.457338013305268,5.865304361050585,0.83726202039985,0.7010076908040388
SYR,6694,,,,,,,,,100.0,100.0,100.0,100.0,100.0,100.0,100.0,100.0,100.0,100.0,100.0,,,,,,100.0,100.0,100.0,0.0,0.0
SYR,6657,,,,,,,,,,,,,,,,,,,,,,,,,,,,,
TJK,6694,,,,,,,,,,,,100.0,100.0,100.0,100.0,,,,,100.0,100.0,100.0,100.0,100.0,100.0,100.0,100.0,0.0,0.0
TJK,6657,,,,,,,,,,,,,,,,,,,,,,,,,,,,,
THA,6694,,,,,,,,,,,,,,,,,,,,,,,,,,,,,
THA,6657,,,,,,,,,,,,,,,,,,,,,,,,,,,,,
TLS,6694,,,,,,,,,,,,,,,,,,,,,,,,,,,,,
TLS,6657,,,,,,,,,,,,,,,,,,,,,,,,,,,,,
TGO,6694,,,,,,,,,,,,,,,,,,,,,,,,,,,,,
TGO,6657,,,,,,,,,,,,,,,,,,,,,,,,,,,,,
TKL,6694,,,,,,,,,,,,,,,,,,,,,,,,,,,,,
TKL,6657,,,,,,,,,,,,,,,,,,,,,,,,,,,,,
TON,6694,,,,,,,,,,,,,,,,,,,,,,,,,,,,,
TON,6657,,,,,,,,,,,,,,,,,,,,,,,,,,,,,
TTO,6694,,,,,,,,,,,,,,,,,,,,,,,,,,,,,
TTO,6657,,,,,,,,,,,,,,,,,,,,,,,,,,,,,
TUN,6694,,,,,,,,,,,,,,,,,,,,,,,,,,,,,
TUN,6657,,,,,,,,,,,,,,,,,,,,,,,,,,,,,
TUR,6694,,,,,,,,,,,,,,,,,,,,,,,,,,,,,
TUR,6657,,,,,,,,,,,,,,,,,,,,,,,,,,,,,
TKM,6694,,,,,,,,,,,,,,,,,,,,,,,,,,,,,
TKM,6657,,,,,,,,,,,,,,,,,,,,,,,,,,,,,
TUV,6694,,,,,,,,,,,,,,,,,,,,,,,,,,,,,
TUV,6657,,,,,,,,,,,,,,,,,,,,,,,,,,,,,
UGA,6694,,,,,,,,,,,,,,,,,,,,,,,,,,,,,
UGA,6657,,,,,,,,,,,,,,,,,,,,,,,,,,,,,
UKR,6694,,,,,,,,100.0,100.0,,,100.0,100.0,100.0,100.0,100.0,100.0,100.0,100.0,100.0,100.0,100.0,100.0,100.0,100.0,100.0,100.0,0.0,0.0
UKR,6657,,,,,,,,,,,,,,,,,,,,,,,,,,,,,
ARE,6694,,,,,,,,,,,,,,,,100.0,100.0,100.0,100.0,100.0,100.0,100.0,100.0,100.0,100.0,100.0,100.0,0.0,0.0
ARE,6657,,,,,,,,,,,,,,,,,,,,,,,,,,,,,
GBR,6694,,,,,,,,,,,,,,,,,,,,,,,,,,,,,
GBR,6657,,,,,,,,,,,,,,,,,,,,,,,,,,,,,
TZA,6694,,,,,,,,,,,,,,,,,,,,,,,,,,,,,
TZA,6657,,,,,,,,,,,,,,,,,,,,,,,,,,,,,
USA,6694,,,,,,,,,,,,,,,,,,,,,,,,,,,,,
USA,6657,,,,,,,,,,,,,,,,,,,,,,,,,,,,,
URY,6694,,,,,,,,,,,,95.26627218934911,100.0,100.0,100.0,101.12359550561797,100.0,100.0,,,,94.61883408071749,94.61883408071749,94.61883408071749,94.61883408071749,101.12359550561797,98.02463699371195,2.81900092097269,7.946766192444874
URY,6657,,,,,,,,,,,,4.733727810650888,,,,-1.1235955056179776,,,,,,5.381165919282512,5.381165919282512,5.381165919282512,-1.1235955056179776,5.381165919282512,3.9507260125760886,2.8504519670523543,8.125076416472636
UZB,6694,,,,,,,,,,,,,,,,,,,,,98.83825574736153,98.89183066299097,98.90085853338437,98.9013698630137,98.83825574736153,98.9013698630137,98.88307870168764,0.03020145172556758,0.0009121276863317888
UZB,6657,,,,,,,,,,,,,,,,,,,,,1.1617442526384685,1.1081693370090346,1.0991414666156287,1.0986301369863014,1.0986301369863014,1.1617442526384685,1.1169212983123584,0.030201451725567225,0.0009121276863317676
VUT,6694,,,,,,,,,,,,,,,,,,,,,,,,,,,,,
VUT,6657,,,,,,,,,,,,,,,,,,,,,,,,,,,,,
VEN,6694,,,,,,,,,,,,,,,,,,,,,,,,,,,,,
VEN,6657,,,,,,,,,,,,,,,,,,,,,,,,,,,,,
VNM,6694,,,,,,,,,,,,,,,,,,,,,,,,,,,,,
VNM,6657,,,,,,,,,,,,,,,,,,,,,,,,,,,,,
YEM,6694,,,,,,,,,,,,,,,,,,,,,,,,,,,,,
YEM,6657,,,,,,,,,,,,,,,,,,,,,,,,,,,,,
ZMB,6694,,,,,,,,,,,,,,,,,,,,,,,,,,,,,
ZMB,6657,,,,,,,,,,,,,,,,,,,,,,,,,,,,,
ZWE,6694,,,,,,,,,,,,,,,,,,,,,,,,,,,,,
ZWE,6657,,,,,,,,,,,,,,,,,,,,,,,,,,,,,
