ISO3,item,Y1995,Y1996,Y1997,Y1998,Y1999,Y2000,Y2001,Y2002,Y2003,Y2004,Y2005,Y2006,Y2007,Y2008,Y2009,Y2010,Y2011,Y2012,Y2013,Y2014,Y2015,Y2016,Y2017,Y2018,min_value,max_value,mean_value,std_dev,var
AFG,6669,,,,,,,,,,,,,,,,,,,,,,,,,,,,,
AFG,6682,,,,,,,,,,,,,,,,,,,,,,,,,,,,,
ALB,6669,,,,,,,,,,,,,,,,100.0,100.0,100.0,100.0,100.0,,,,100.0,100.0,100.0,100.0,0.0,0.0
ALB,6682,,,,,,,,,,,,,,,,,,,,,,,,,,,,,
DZA,6669,,,,,,,,,,,,,,,100.0,100.0,100.00000000000001,100.0,100.00000000000001,100.00000000000001,,100.0,100.0,100.0,100.0,100.00000000000001,100.0,0.0,7.573064690121713e-29
DZA,6682,,,,,,,,,,,,,,,,,,,,,,,,,,,,,
AGO,6669,,,,,,,,,,,,,,,,100.0,100.0,100.0,100.0,100.0,,,,,100.0,100.0,100.0,0.0,0.0
AGO,6682,,,,,,,,,,,,,,,,,,,,,,,,,,,,,
ATG,6669,,,,,,,,,,,,,,,,,,,,,,,,,,,,,
ATG,6682,,,,,,,,,,,,,,,,,,,,,,,,,,,,,
ARG,6669,,,,,,,,,,,,,,,,,,,,,,,,,,,,,
ARG,6682,,,,,,,,,,,,,,,,,,,,,,,,,,,,,
ARM,6669,,,,,,,,,,,,,,,,,,,,,,,,,,,,,
ARM,6682,,,,,,,,,,,,,,,,,,,,,,,,,,,,,
AUS,6669,,,,,,,,,,,,,,,,,,,,,,,,,,,,,
AUS,6682,,,,,,,,,,,,,,,,,,,,,,,,,,,,,
AUT,6669,,,,,,,,,,,,,,,,,,,,,,,,,,,,,
AUT,6682,,,,,,,,,,,,,,,,,,,,,,,,,,,,,
AZE,6669,,,,,,,,,,,,,,,6.2857142857142865,9.392265193370164,6.664309210526317,6.664311133706151,6.66430971128609,4.311249343832021,6.664311023622047,6.664311023622047,6.664311023622047,6.664311023622047,4.311249343832021,9.392265193370164,6.6639402972923225,1.2074752050236295,1.457996370746856
AZE,6682,,,,,,,,,,,,,,,93.71428571428571,90.60773480662982,93.33242324561405,93.33241992882562,93.33241994750657,95.68224146981628,93.33242125984252,93.33242125984252,93.33242125984252,93.33242125984252,90.60773480662982,95.68224146981628,93.33312101520482,1.20606738583256,1.4545985391689848
BHS,6669,,,,,,,,,,,,,,,,,,,,,,,,,,,,,
BHS,6682,,,,,,,,,,,,,,,,,,,,,,,,,,,,,
BHR,6669,,,,,,,,,,,,,,,,,,,,,,,,,,,,,
BHR,6682,,,,,,,,,,,,,,,,,,,,,,,,,,,,,
BGD,6669,,,,,,,,,,,,,,,,100.0,,,,,,,,,100.0,100.0,100.0,0.0,
BGD,6682,,,,,,,,,,,,,,,,,,,,,,,,,,,,,
BRB,6669,,,,,,,,,,,,,,,,,,,,,,,,,,,,,
BRB,6682,,,,,,,,,,,,,,,,,,,,,,,,,,,,,
BLR,6669,,,,,,,,,,,,,,,,,,,,,,,,,,,,,
BLR,6682,,,,,,,,,,,,,,,,,,,,,,,,,,,,,
BEL,6669,,,,,,,,,,,30.952575757575755,30.952577981651377,30.95257983193277,30.95257664233577,30.952577181208053,30.952578947368426,30.952575682382136,26.495726495726498,28.740157480314963,28.698751785714283,31.99300699300699,33.035714795008914,33.33333333333333,34.37908496732026,26.495726495726498,34.37908496732026,30.953129848205684,2.012823420324254,4.05145812140583
BEL,6682,,,,,,,,,,,69.04743434343435,69.04743119266054,69.04743277310924,69.04743430656936,69.04743288590603,69.04743092105262,69.0474317617866,73.50427350427351,71.25984251968505,71.33774107142857,68.006993006993,66.92480570409981,66.66666666666666,65.62091503267973,65.62091503267973,73.50427350427351,69.04666183502465,2.0191548428127577,4.076986279254212
BLZ,6669,,,,,,,,,,,,,,,100.0,100.0,100.0,,100.0,100.0,100.0,99.99999999999999,99.99999999999999,,99.99999999999999,100.0,100.0,0.0,5.769954049616543e-29
BLZ,6682,,,,,,,,,,,,,,,,,,,,,,,,,,,,,
BEN,6669,,,,,,,,,,,,,,,,,100.0,100.0,,100.0,,,,100.0,100.0,100.0,100.0,0.0,0.0
BEN,6682,,,,,,,,,,,,,,,,,,,,,,,,,,,,,
BTN,6669,,,,,,,,,,,,,,,,,,,,,,,,,,,,,
BTN,6682,,,,,,,,,,,,,,,,,,,,,,,,,,,,,
BOL,6669,,,,,,,,,,,,,,,,100.0,100.0,100.0,100.0,100.0,100.0,100.0,100.0,100.0,100.0,100.0,100.0,0.0,0.0
BOL,6682,,,,,,,,,,,,,,,,,,,,,,,,,,,,,
BIH,6669,,,,,,,,,,,,,,,,,,,,,,,,,,,,,
BIH,6682,,,,,,,,,,,,,,,,,,,,,,,,,,,,,
BWA,6669,,,,,,,,,,,,,,,,,,,,,,,,,,,,,
BWA,6682,,,,,,,,,,,,,,,,,,,,,,,,,,,,,
BRA,6669,,,,,,,,,,,,,,,,,,,,,,,,,,,,,
BRA,6682,,,,,,,,,,,,,,,,,,,,,,,,,,,,,
BRN,6669,,,,,,,,,,,,,,,,,,,,,,,,,,,,,
BRN,6682,,,,,,,,,,,,,,,,,,,,,,,,,,,,,
BGR,6669,,,,,,,,,,,,,,,,81.76203149606299,,,16.666666666666668,,70.41666666666666,83.93434626038781,72.31404958677686,76.09988109393579,16.666666666666668,83.93434626038781,66.86560696174946,25.14257863750309,632.1492605430267
BGR,6682,,,,,,,,,,,,,,,,18.23636220472441,,,83.33333333333333,,29.583333333333332,16.065653739612188,27.685950413223143,23.900118906064215,16.065653739612188,83.33333333333333,33.134125321715096,25.142768984721222,632.1588322190595
BFA,6669,,,,,,,,,,,,,,,,,,,,,,,,,,,,,
BFA,6682,,,,,,,,,,,,,,,,,,,,,,,,,,,,,
BDI,6669,,,,,,,,,,,,,,,,,,,,100.0,,,100.0,100.0,100.0,100.0,100.0,0.0,0.0
BDI,6682,,,,,,,,,,,,,,,,,,,,,,,,,,,,,
CPV,6669,,,,,,,,,,,,,,,,,,,,,100.0,100.0,100.0,100.0,100.0,100.0,100.0,0.0,0.0
CPV,6682,,,,,,,,,,,,,,,,,,,,,,,,,,,,,
KHM,6669,,,,,,,,,,,,,,,,,,,,,,,,,,,,,
KHM,6682,,,,,,,,,,,,,,,,,,,,,,,,,,,,,
CMR,6669,,,,,,,,,,,,,,,,,,,,100.0,100.0,100.0,,,100.0,100.0,100.0,0.0,0.0
CMR,6682,,,,,,,,,,,,,,,,,,,,,,,,,,,,,
CAN,6669,,,,,,,,,,,,,,,,,,,,,,,,,,,,,
CAN,6682,,,,,,,,,,,,,,,,,,,,,,,,,,,,,
CAF,6669,,,,,,,,,,,,,,,,,,,,,,,,,,,,,
CAF,6682,,,,,,,,,,,,,,,,,,,,,,,,,,,,,
TCD,6669,,,,,,,,,,,,,,,,,,,,,,,,,,,,,
TCD,6682,,,,,,,,,,,,,,,,,,,,,,,,,,,,,
CHL,6669,,,,,,,,,,,,,,,18.92561511762437,47.63406940063091,50.51903114186852,88.0794701986755,85.73416899832121,86.45467134972405,86.48961,89.98747499999999,90.71322515212982,93.6779195402299,18.92561511762437,93.6779195402299,73.82152558992043,25.491982841539855,649.8411891933624
CHL,6682,,,,,,,,,,,,,,,81.07438359686334,52.365930599369094,49.48096885813149,11.920529801324504,14.265836597649692,13.545328650275968,13.510375,10.01251875,9.28669878296146,6.322080459770115,6.322080459770115,81.07438359686334,26.178465109634566,25.491989112331837,649.841508903245
CHN,6669,,,,,,,,,,,,,,,,,,,,,,,,,,,,,
CHN,6682,,,,,,,,,,,,,,,,,,,,,,,,,,,,,
HKG,6669,,,,,,,,,,,,,,,,,,,,,,,,,,,,,
HKG,6682,,,,,,,,,,,,,,,,,,,,,,,,,,,,,
MAC,6669,,,,,,,,,,,,,,,,,,,,,,,,,,,,,
MAC,6682,,,,,,,,,,,,,,,,,,,,,,,,,,,,,
TWN,6669,,,,,,,,,,,,,,,,,100.0,100.0,100.0,100.0,100.0,100.0,100.0,,100.0,100.0,100.0,0.0,0.0
TWN,6682,,,,,,,,,,,,,,,,,,,,,,,,,,,,,
COL,6669,,,,,,,,,,,,,,,,,,,,98.08429118773945,,98.08429118773945,98.08429118773945,,98.08429118773945,98.08429118773945,98.08429118773945,0.0,0.0
COL,6682,,,,,,,,,,,,,,,,,,,,1.9157088122605364,,1.9157088122605364,1.9157088122605364,,1.9157088122605364,1.9157088122605364,1.9157088122605364,0.0,0.0
COM,6669,,,,,,,,,,,,,,,,,,,,100.0,100.0,100.0,100.0,100.0,100.0,100.0,100.0,0.0,0.0
COM,6682,,,,,,,,,,,,,,,,,,,,,,,,,,,,,
COG,6669,,,,,,,,,,,,,,,,,,,,,,,,,,,,,
COG,6682,,,,,,,,,,,,,,,,,,,,,,,,,,,,,
COK,6669,,,,,,,,,,,,,,,,100.0,100.0,100.0,100.0,100.0,100.0,100.0,100.0,,100.0,100.0,100.0,0.0,0.0
COK,6682,,,,,,,,,,,,,,,,,,,,,,,,,,,,,
CRI,6669,,,,,,,,,,,,,,,,,,,,,,,,,,,,,
CRI,6682,,,,,,,,,,,,,,,,,,,,,,,,,,,,,
CIV,6669,,,,,,,,,,,,,,,,,,,,,100.0,100.0,,100.0,100.0,100.0,100.0,0.0,0.0
CIV,6682,,,,,,,,,,,,,,,,,,,,,,,,,,,,,
HRV,6669,,,,,,,,,,,,,57.894736842105274,85.71428571428571,88.09523809523809,83.33333333333333,67.14285714285714,78.64077669902912,78.03468208092485,75.55555555555556,68.6046511627907,75.68493150684931,69.0307328605201,69.63350785340315,57.894736842105274,88.09523809523809,74.78044073724102,8.728459555141791,76.18600620574604
HRV,6682,,,,,,,,,,,,,42.10526315789474,14.285714285714285,11.904761904761905,12.962962962962962,18.571428571428573,20.388349514563107,20.23121387283237,24.444444444444443,31.3953488372093,24.315068493150687,31.20567375886525,30.366492146596855,11.904761904761905,42.10526315789474,23.514726829202043,9.00309081957727,81.05564430555653
CUB,6669,,,,,,,,,,,,,,,,,100.0,,,,,,,,100.0,100.0,100.0,0.0,
CUB,6682,,,,,,,,,,,,,,,,,,,,,,,,,,,,,
CYP,6669,,,,,,,,,,,,93.48128571428572,93.48135714285716,93.481375,93.48136150234741,93.48136150234741,93.48136150234741,91.42858333333334,91.89189189189189,87.5,90.625,98.05825806451612,97.36842105263159,97.36842105263159,87.5,98.05825806451612,93.4714367507069,2.913202187745321,8.486746986684125
CYP,6682,,,,,,,,,,,,6.465285714285714,6.465285714285714,6.46525,6.465258215962442,6.465258215962442,6.465258215962442,8.353222222222222,8.108108108108107,12.5,9.116818181818182,1.9356129032258065,2.6315789473684212,2.6315789473684212,1.9356129032258065,12.5,6.466808875889994,2.88132046378283,8.302007615013702
CZE,6669,,,,,,,,,,,,,,7.835820895522388,9.183673469387756,10.091743119266056,10.64935064935065,12.666666666666666,12.638580931263858,12.93859649122807,14.12037037037037,13.286713286713287,13.507625272331154,14.07563025210084,7.835820895522388,14.12037037037037,11.908615582200099,2.123955941657317,4.51118884210142
CZE,6682,,,,,,,,,,,,,,84.32835820895522,84.6938775510204,84.70948012232417,84.67532467532467,87.55555555555556,87.36141906873614,86.84210526315789,85.87962962962963,86.48018648018648,86.49237472766885,86.1344537815126,84.32835820895522,87.55555555555556,85.92297864218834,1.1551289204945319,1.3343228229628625
PRK,6669,,,,,,,,,,,,,,,,,,,,,,,,,,,,,
PRK,6682,,,,,,,,,,,,,,,,,,,,,,,,,,,,,
COD,6669,,,,,,,,,,,,,100.0,100.0,100.0,100.0,,,,100.0,100.0,100.0,100.0,100.0,100.0,100.0,100.0,0.0,0.0
COD,6682,,,,,,,,,,,,,,,,,,,,,,,,,,,,,
DNK,6669,,,,,,,,,,,,,,,,,,,85.42068079640335,37.84059837464393,39.692533036959,39.720374592526994,40.979152110169544,39.1170431211499,37.84059837464393,85.42068079640335,47.128397005308784,18.786846857326573,352.9456148406413
DNK,6682,,,,,,,,,,,,,,,,,,,14.579319203596661,62.15940162535606,60.30746696304101,60.279625407473006,59.02084788983046,60.8829568788501,14.579319203596661,62.15940162535606,52.871602994691216,18.786846857326573,352.94561484064127
DJI,6669,,,,,,,,,,,,,,,,,,,,,,,,,,,,,
DJI,6682,,,,,,,,,,,,,,,,,,,,,,,,,,,,,
DMA,6669,,,,,,,,,,,,,,,,,,,,,,,,,,,,,
DMA,6682,,,,,,,,,,,,,,,,,,,,,,,,,,,,,
DOM,6669,,,,,,,,,,,,,,98.11960829959514,98.10589165545089,96.05614973262031,99.58706125258085,98.6728599867286,100.0,100.0,,98.10563163538875,,,96.05614973262031,100.0,98.58090032029557,1.3140544463954258,1.7267390880915892
DOM,6682,,,,,,,,,,,,,,1.8943724696356274,1.8943687752355316,3.943850267379679,0.4129387474191328,1.3271400132714002,,,,1.89436836461126,,,0.4129387474191328,3.943850267379679,1.8945064395921054,1.1590304283030561,1.3433515337323656
ECU,6669,,,,,,,,,,,,,,,,,,,,,,,,,,,,,
ECU,6682,,,,,,,,,,,,,,,,,,,,,,,,,,,,,
EGY,6669,,,,,,,,,,,,,,,,,,,,,,,,,,,,,
EGY,6682,,,,,,,,,,,,,,,,,,,,,,,,,,,,,
SLV,6669,,,,,,,,,,,,,,,,,,,,,,,,,,,,,
SLV,6682,,,,,,,,,,,,,,,,,,,,,,,,,,,,,
GNQ,6669,,,,,,,,,,,,,,,,,,,,,,,,,,,,,
GNQ,6682,,,,,,,,,,,,,,,,,,,,,,,,,,,,,
ERI,6669,,,,,,,,,,,,,,,,,,,,,,,,,,,,,
ERI,6682,,,,,,,,,,,,,,,,,,,,,,,,,,,,,
EST,6669,,,,,,,,,,81.80367118914606,81.79271708683473,83.40909090909092,83.15217391304347,42.97635605006954,44.5945945945946,41.46341463414634,40.19607843137255,40.98360655737705,45.61538461538461,45.121056493030075,46.04370761115298,45.87765957446808,49.75124378109452,51.22235157159488,40.19607843137255,83.40909090909092,54.93354046749336,17.481527870462116,305.60381668574377
EST,6682,,,,,,,,,,18.19632881085395,18.207282913165265,17.954545454545453,16.666666666666664,57.02364394993045,55.4054054054054,57.31707317073171,56.86274509803921,54.09836065573771,54.61538461538461,54.87894350696992,53.95629238884702,53.8563829787234,50.24875621890547,48.07916181606519,16.666666666666664,57.31707317073171,44.49113157666476,16.861670046307676,284.31591675054955
SWZ,6669,,,,,,,,,,,,,,,,,,,,,100.0,100.0,,100.0,100.0,100.0,100.0,0.0,0.0
SWZ,6682,,,,,,,,,,,,,,,,,,,,,,,,,,,,,
ETH,6669,,,,,,,,,,,,,,,,100.0,100.0,100.0,3.99002493765586,3.99002493765586,100.0,100.0,100.0,100.0,3.99002493765586,100.0,78.66444998614574,42.33641956607928,1792.3724216751002
ETH,6682,,,,,,,,,,,,,,,,,,,,,,,,,,,,,
FRO,6669,,,,,,,,,,,,,,,,,,,,,,,,,,,,,
FRO,6682,,,,,,,,,,,,,,,,,,,,,,,,,,,,,
FJI,6669,,,,,,,,,,,,,,,,,,,100.0,100.0,100.0,100.0,100.0,100.0,100.0,100.0,100.0,0.0,0.0
FJI,6682,,,,,,,,,,,,,,,,,,,,,,,,,,,,,
FIN,6669,,,,,,,,,,,,,,98.52941176470588,97.2027972027972,,,,97.29729705882353,98.56611798941799,98.33072500000002,99.24127447023209,99.48932197853475,99.48957894736843,97.2027972027972,99.48957894736843,98.51831555148499,0.8998371886809828,0.8097069661332947
FIN,6682,,,,,,,,,,,100.0,100.0,100.0,1.4705882352941178,2.797202797202797,100.0,100.0,100.0,2.2457911764705885,1.42864708994709,1.666709895833333,0.7568259334006056,0.5132855809612692,0.5093433786078099,0.5093433786078099,100.0,43.67059957769412,50.627787626379735,2563.1728799418092
FRA,6669,,,,,,,,,,,60.63431853320118,60.63431845476381,60.634318520008044,60.63431851704206,60.634318589132505,60.63431846799581,60.634318449389816,60.63431848030019,61.97636949516649,62.06185567010309,60.45364891518738,59.557210626185956,59.10196142000324,60.65486490083855,59.10196142000324,62.06185567010309,60.63431850280843,0.753469232262723,0.5677158839665772
FRA,6682,,,,,,,,,,,39.36568146679881,39.365681545236185,39.365681479991956,39.365681482957946,39.36568141086749,39.365681532004196,39.36568155061019,39.36568151969982,38.02363050483351,37.93814432989691,39.54635108481262,40.44278937381404,40.89803857999676,39.34513509916146,37.93814432989691,40.89803857999676,39.36568149719157,0.7534692322627223,0.5677158839665761
GUF,6669,,,,,,,,,,,,,,,18.77545,18.775449101796408,18.77545,18.775428571428574,18.775443037974682,18.77545918367347,18.775454545454547,18.775454545454547,17.266187050359715,20.284697508896794,17.266187050359715,20.284697508896794,18.775447354503875,0.7114697381580539,0.5061891883146898
GUF,6682,,,,,,,,,,,,,,,81.22455,81.22455089820359,81.22455,81.22457142857142,81.2245569620253,81.22454081632652,81.22454545454546,81.22454545454546,82.73381294964028,79.71530249110322,79.71530249110322,82.73381294964028,81.22455264549612,0.7114697381580506,0.5061891883146851
PYF,6669,,,,,,,,,,,,,,,,100.0,,100.0,100.0,100.0,99.99999999999999,100.0,100.0,100.0,99.99999999999999,100.0,100.0,0.0,2.8849770248082716e-29
PYF,6682,,,,,,,,,,,,,,,,,,,,,,,,,,,,,
GAB,6669,,,,,,,,,,,,,,,,,,,,,,,,,,,,,
GAB,6682,,,,,,,,,,,,,,,,,,,,,,,,,,,,,
GMB,6669,,,,,,,,,,,,,,,,,,,,,,,,,,,,,
GMB,6682,,,,,,,,,,,,,,,,,,,,,,,,,,,,,
GEO,6669,,,,,,,,,,,,,,,,,100.0,100.0,100.0,100.0,100.0,100.0,100.0,100.0,100.0,100.0,100.0,0.0,0.0
GEO,6682,,,,,,,,,,,,,,,,,,,,,,,,,,,,,
DEU,6669,,,,,,,,,,,,,,,,,,,,,,,,,,,,,
DEU,6682,,,,,,,,,,,,,,,,,,,,,,,,,,,,,
GHA,6669,,,,,,,,,,,,,,,,,,,,100.0,100.0,100.0,100.0,100.0,100.0,100.0,100.0,0.0,0.0
GHA,6682,,,,,,,,,,,,,,,,,,,,,,,,,,,,,
GRC,6669,,,,,,,,,,,,,,,,,,27.94201250710631,31.950207468879665,37.32480195003047,34.95808977685522,40.77197534868634,42.5876836480228,36.205808080808076,27.94201250710631,42.5876836480228,35.962939825769844,5.006241545079377,25.062454407678754
GRC,6682,,,,,,,,,,,,,,,,,,72.05798749289369,68.04979253112033,62.67519804996953,65.04191126102751,59.22802465131365,57.41231670822943,63.79419191919192,57.41231670822943,72.05798749289369,64.0370603733923,5.006241501228691,25.062453968624492
GRD,6669,,,,,,,,,,,,,,,,,,,,,,,,,,,,,
GRD,6682,,,,,,,,,,,,,,,,,,,,,,,,,,,,,
GLP,6669,,,,,,,,,,,,,,,,,,,,,,,89.1564705882353,86.36363636363636,86.36363636363636,89.1564705882353,87.76005347593582,1.9748320189437796,3.8999615030455645
GLP,6682,,,,,,,,,,,,,,,,100.0,100.0,100.0,100.0,100.0,100.0,100.0,8.336470588235294,13.636363636363637,8.336470588235294,100.0,80.21920380273322,39.27365724374232,1542.420153298954
GTM,6669,,,,,,,,,,,,,100.0,100.0,,,100.0,100.0,100.0,100.0,100.0,100.0,100.0,100.0,100.0,100.0,100.0,0.0,0.0
GTM,6682,,,,,,,,,,,,,,,,,,,,,,,,,,,,,
GIN,6669,,,,,,,,,,,,,,,,,,,,,,,,,,,,,
GIN,6682,,,,,,,,,,,,,,,,,,,,,,,,,,,,,
GNB,6669,,,,,,,,,,,,,,,,,,,100.0,100.0,,,,89.1566265060241,89.1566265060241,100.0,96.3855421686747,6.26042460567064,39.1929162432864
GNB,6682,,,,,,,,,,,,,,,,,,,,,100.0,100.0,,10.843373493975903,10.843373493975903,100.0,70.28112449799197,51.47460231329193,2649.6346833115595
GUY,6669,,,,,,,,,,,,,,,,,,,,,,,,,,,,,
GUY,6682,,,,,,,,,,,,,,,,,,,,,,,,,,,,,
HTI,6669,,,,,,,,,,,,,,,,,,,,,100.0,100.0,100.0,100.0,100.0,100.0,100.0,0.0,0.0
HTI,6682,,,,,,,,,,,,,,,,,,,,,,,,,,,,,
HND,6669,,,,,,,,,,,,,,,,,,,,,,,,,,,,,
HND,6682,,,,,,,,,,,,,,,,,,,,,,,,,,,,,
HUN,6669,,,,,,,,,,51.22630992196209,48.56931425752344,47.62564991334489,45.289750265162475,43.96375328851213,45.2159797998016,46.00409836065574,47.83889980353635,51.740357478833495,50.0,49.45945945945946,50.05313496280553,37.23986856516977,50.047846889952154,42.60666277030977,37.23986856516977,51.740357478833495,47.125405715801925,3.856298579221132,14.871038732102923
HUN,6682,,,,,,,,,,48.7736900780379,51.43068574247657,52.37435008665511,54.71989200655675,56.02650297184059,54.78402020019839,53.89344262295082,52.16110019646366,48.25964252116651,50.0,50.72072072072072,49.94686503719448,62.760131434830235,49.856459330143544,57.39333722969024,48.25964252116651,62.760131434830235,52.8733893452617,3.8517997455044912,14.836361279468463
ISL,6669,,,,,,,,,,,,,,,,,,,,,,,,,,,,,
ISL,6682,,,,,,,,,,,,,,,,,,,,,,,,,,,,,
IND,6669,,,,,,,,,,,,,,,,,,,,,,,,,,,,,
IND,6682,,,,,,,,,,,,,,,,,,,,,,,,,,,,,
IDN,6669,,,,,,,,,,,,,,,,,,,,,,,,,,,,,
IDN,6682,,,,,,,,,,,,,,,,,,,,,,,,,,,,,
IRN,6669,,,,,,,,,,,,,,100.0,100.0,100.0,100.0,100.0,100.0,100.0,100.0,100.0,100.0,100.0,100.0,100.0,100.0,0.0,0.0
IRN,6682,,,,,,,,,,,,,,,,,,,,,,,,,,,,,
IRQ,6669,,,,,,,,,,,,,,,,,,,,,,,,,,,,,
IRQ,6682,,,,,,,,,,,,,,,,,,,,,,,,,,,,,
IRL,6669,,,,,,,,,,,7.218272340425532,,7.218422077922078,,7.218429708222811,7.218429708222811,7.2184289473684204,7.218428571428572,7.218431289640592,7.94979079497908,8.333333333333334,10.10752688172043,4.970249624060151,4.727456258411843,4.727456258411843,10.10752688172043,7.218099961311304,1.3942753982865246,1.9440038862670468
IRL,6682,,,,,,,,,,,92.77971063829789,,92.78144480519481,,92.78156233421748,92.78156233421748,92.78156315789474,92.7815617433414,92.7815602536998,92.05020920502092,91.66666666666667,89.89247311827957,95.02973383458647,95.27254374158815,89.89247311827957,95.27254374158815,92.78171598608378,1.3942731202701044,1.9439975339077333
ISR,6669,,,,,,,,,,,,,100.0,100.0,100.0,100.0,100.0,,100.0,100.0,100.0,100.0,100.0,100.0,100.0,100.0,100.0,0.0,0.0
ISR,6682,,,,,,,,,,,,,,,,,,,,,,,,,,,,,
ITA,6669,,,,,,,,,,,71.4204438957476,71.42044394506867,71.42044396456257,71.42044396551724,71.42044394557823,71.42044388586956,71.4204439665472,71.42044392725698,71.42044396728016,68.11740891590678,72.36962486288849,72.10657785179018,71.78683382928739,72.72727274809161,68.11740891590678,72.72727274809161,71.42083669081376,1.0423274793518507,1.0864465742119827
ITA,6682,,,,,,,,,,,28.573647050754456,28.57364706616729,28.573647065337763,28.573647044334976,28.57364707482993,28.573647010869564,28.57364707287933,28.573647001515482,28.573647034764825,31.904587639311046,27.612092595978062,27.893422148209826,28.197302584181674,27.257583129770996,27.257583129770996,31.904587639311046,28.57341510849323,1.0508647259980064,1.104316672346865
JAM,6669,,,,,,,,,,,,,,,,,,,,,,,,,,,,,
JAM,6682,,,,,,,,,,,,,,,,,,,,,,,,,,,,,
JPN,6669,,,,,,,,,,,,,,,,,95.74468085106382,,95.74467924528304,95.74467924528304,95.74468127490042,95.74467871485943,95.74467871485943,95.74468025949955,95.74467871485943,95.74468127490042,95.74467975796412,1.0367673334141057e-06,1.0748865036345953e-12
JPN,6682,,,,,,,,,,,,,,,,,4.25531914893617,,4.255320754716982,4.255320754716982,4.255318725099602,4.255321285140561,4.255321285140561,4.255319740500464,4.255318725099602,4.255321285140561,4.255320242035903,1.0367673315198448e-06,1.0748864997067797e-12
JOR,6669,,,,,,,,,,,,,100.0,100.0,100.0,,100.0,,,,,,,,100.0,100.0,100.0,0.0,0.0
JOR,6682,,,,,,,,,,,,,,,,,,,,,,,,,,,,,
KAZ,6669,,,,,,,,,,,,,,,,,,,,,,,,,,,,,
KAZ,6682,,,,,,,,,,,,,,,,,,,,,,,,,,,,,
KEN,6669,,,,,,,,,,,,,95.52941176470587,100.0,100.0,100.0,100.0,100.0,100.0,100.0,,,100.0,100.0,95.52941176470587,100.0,99.55294117647058,1.4137241304282206,1.9986159169550288
KEN,6682,,,,,,,,,,,,,,,,,,,,,,,,,,,,,
KIR,6669,,,,,,,,,,,,,,,,,,,,100.0,100.0,100.0,100.0,100.0,100.0,100.0,100.0,0.0,0.0
KIR,6682,,,,,,,,,,,,,,,,,,,,,,,,,,,,,
KWT,6669,,,,,,,,,,,,,,,,,,,,,,,,,,,,,
KWT,6682,,,,,,,,,,,,,,,,,,,,,,,,,,,,,
KGZ,6669,,,,,,,,,,,,,,,,,,,,,,,,,,,,,
KGZ,6682,,,,,,,,,,,,,,,,,,,,,,,,,,,,,
LAO,6669,,,,,,,,,,,,,,,,,,,,,,,,,,,,,
LAO,6682,,,,,,,,,,,,,,,,,,,,,,,,,,,,,
LVA,6669,,,,,,,,,,,,81.640625,100.0,69.08450704225352,66.77420694542877,62.3753667146974,63.39592774788624,60.74637180373186,55.54874310239117,52.35366219988833,55.714285714285715,55.86412605042016,51.682803135085294,51.10044017607043,51.10044017607043,100.0,63.560081971703,13.879940780514938,192.6527560706016
LVA,6682,,,,,,,,,,,,18.359375,,30.91549295774648,33.22927994330262,37.62066354466858,36.59993082244427,39.253628196268146,44.45125689760883,47.64286208821888,44.285714285714285,44.13222388955583,48.317196864914706,48.89955982392957,18.359375,48.89955982392957,39.47559869286435,8.909718748674797,79.38308818048718
LBN,6669,,,,,,,,,,,,,,,,,,,,,,,,,,,,,
LBN,6682,,,,,,,,,,,,,,,,,,,,,,,,,,,,,
LSO,6669,,,,,,,,,,,,,,,,,100.0,100.0,100.0,100.0,100.0,100.0,,100.0,100.0,100.0,100.0,0.0,0.0
LSO,6682,,,,,,,,,,,,,,,,,,,,,,,,,,,,,
LBR,6669,,,,,,,,,,,,,,,,,,,,,,,,100.0,100.0,100.0,100.0,0.0,
LBR,6682,,,,,,,,,,,,,,,,,,,,,,,,,,,,,
LBY,6669,,,,,,,,,,,,,,,,,,,,,,,,,,,,,
LBY,6682,,,,,,,,,,,,,,,,,,,,,,,,,,,,,
LTU,6669,,,,,,,,,,58.62068965517241,69.56521739130434,68.75,75.57522123893806,79.9777530589544,81.62111215834119,80.62015503875969,76.25754527162978,74.23580786026201,73.59050445103857,73.5966735966736,71.63498098859316,68.801191362621,65.7684630738523,63.615133115366646,58.62068965517241,81.62111215834119,72.14869655076716,6.470663659645566,41.86948819625775
LTU,6682,,,,,,,,,,41.37931034482759,30.434782608695652,31.25,24.424778761061948,20.022246941045605,18.378887841658813,19.37984496124031,23.74245472837022,25.76419213973799,26.409495548961424,26.4033264033264,28.36501901140684,31.198808637379,34.2315369261477,36.338159738439984,18.378887841658813,41.37931034482759,27.84818963948663,6.466273568503023,41.81269386272081
LUX,6669,,,,,,,,,,,,,,46.656727272727274,46.65672955974843,47.32142433234421,46.8944099378882,47.04225352112676,45.6692987012987,45.98931216931218,47.22955380577428,45.780050505050504,46.66666666666667,47.30103333983234,45.6692987012987,47.32142433234421,46.65522361925177,0.5982725502166439,0.3579300443427268
LUX,6682,,,,,,,,,,,,,,53.17103030303031,53.171037735849055,52.60448071216618,53.1055900621118,52.95774647887324,54.07145454545455,53.74634920634921,52.639265091863514,53.904368686868686,53.08559641678453,52.43998830181322,52.43998830181322,54.07145454545455,53.17244614010585,0.5361683729522885,0.28747652415430436
MDG,6669,,,,,,,,,,,,,,,,,,,,,,100.0,,100.0,100.0,100.0,100.0,0.0,0.0
MDG,6682,,,,,,,,,,,,,,,,,,,,,,,,,,,,,
MWI,6669,,,,,,,,,,,,,,,,,,,,,,,,,,,,,
MWI,6682,,,,,,,,,,,,,,,,,,,,,,,,,,,,,
MYS,6669,,,,,,,,,,,,,,,,,,,,,,,,,,,,,
MYS,6682,,,,,,,,,,,,,,,,,,,,,,,,,,,,,
MDV,6669,,,,,,,,,,,,,,,,,,,,,,,,,,,,,
MDV,6682,,,,,,,,,,,,,,,,,,,,,,,,,,,,,
MLI,6669,,,,,,,,,,,,,,,,,,,,100.0,100.0,100.0,,,100.0,100.0,100.0,0.0,0.0
MLI,6682,,,,,,,,,,,,,,,,,,,,,,,,,,,,,
MLT,6669,,,,,,,,,,,,,,,,,,,,,,,,,,,,,
MLT,6682,,,,,,,,,,,,,,,,,,,,,,,,,,,,,
MHL,6669,,,,,,,,,,,,,,,,,,,,,,,,,,,,,
MHL,6682,,,,,,,,,,,,,,,,,,,,,,,,,,,,,
MTQ,6669,,,,,,,,,,,,,,,85.17846153846153,85.179,85.17857142857143,85.17833333333333,85.17869565217391,85.1785,85.17842105263159,85.17846153846153,87.50000000000001,82.85714285714285,82.85714285714285,87.50000000000001,85.17855874007762,1.0943319388020805,1.1975623922823202
MTQ,6682,,,,,,,,,,,,,,,14.821538461538461,14.821,14.821428571428571,14.821666666666667,14.821304347826086,14.821499999999999,14.82157894736842,14.821538461538461,12.5,17.142857142857142,12.5,17.142857142857142,14.82144125992238,1.0943319388020745,1.197562392282307
MRT,6669,,,,,,,,,,,,,,,,,,,,,,,,,,,,,
MRT,6682,,,,,,,,,,,,,,,,,,,,,,,,,,,,,
MUS,6669,,,,,,,,,,,,,,,,,,,,,,,,,,,,,
MUS,6682,,,,,,,,,,,,,,,,,,,,,,,,,,,,,
MEX,6669,,,,,,,,,,,,,,98.19494586466166,98.19546917293233,98.16541353383458,,98.18545680322649,98.18545685069887,,,98.18545702875399,,,98.16541353383458,98.19546917293233,98.18536654235133,0.010880933782200963,0.00011839471997264215
MEX,6682,,,,,,,,,,,,,,1.8045212030075186,1.8045215037593987,1.8345864661654134,,1.8145431967735088,1.8145431493011173,,,1.8145429712460064,,,1.8045212030075186,1.8345864661654134,1.814543081708827,0.010978226977110171,0.00012052146756094955
FSM,6669,,,,,,,,,,,,,,,,,,,,,,,,,,,,,
FSM,6682,,,,,,,,,,,,,,,,,,,,,,,,,,,,,
MNG,6669,,,,,,,,,,,,,,,,,,,,,,,,,,,,,
MNG,6682,,,,,,,,,,,,,,,,,,,,,,,,,,,,,
MNE,6669,,,,,,,,,,,,,,,,,,,,,,,11.764705882352942,87.35827664399092,11.764705882352942,87.35827664399092,49.56149126317193,53.45272649965934,2857.193970247384
MNE,6682,,,,,,,,,,,,,,,,,,,,,,,88.23529411764706,12.64172335600907,12.64172335600907,88.23529411764706,50.43850873682806,53.45272649965935,2857.1939702473846
MAR,6669,,,,,,,,,,,,,,,,,,,,,,,,,,,,,
MAR,6682,,,,,,,,,,,,,,,,,,,,,,,,,,,,,
MOZ,6669,,,,,,,,,,,,,,,,,,,,,,,,,,,,,
MOZ,6682,,,,,,,,,,,,,,,,,,,,,,,,,,,,,
MMR,6669,,,,,,,,,,,,,,,,,100.0,,,100.0,100.0,100.0,100.0,100.0,100.0,100.0,100.0,0.0,0.0
MMR,6682,,,,,,,,,,,,,,,,,,,,,,,,,,,,,
NAM,6669,,,,,,,,,,,,,,,,,,,,,,,,,,,,,
NAM,6682,,,,,,,,,,,,,,,,,,,,,,,,,,,,,
NRU,6669,,,,,,,,,,,,,,,,,,,,,,,,,,,,,
NRU,6682,,,,,,,,,,,,,,,,,,,,,,,,,,,,,
NPL,6669,,,,,,,,,,,,,100.0,100.0,100.0,,100.0,100.0,100.0,,,100.0,100.0,100.0,100.0,100.0,100.0,0.0,0.0
NPL,6682,,,,,,,,,,,,,,,,,,,,,,,,,,,,,
NLD,6669,,,,,,,,,,,42.53190831556504,42.531908510638296,42.53190769230769,42.53190831556504,42.53190736842106,42.531908872901674,40.50925866050809,41.031391011235954,36.96682464454976,37.47072535211267,42.5531914893617,46.106557377049185,46.89265536723164,48.73524451939292,36.96682464454976,48.73524451939292,42.532664106917196,3.201014849389356,10.246496066011161
NLD,6682,,,,,,,,,,,57.47507249466951,57.47507234042553,57.47507252747253,57.47507249466951,57.47507368421053,57.47507194244604,59.43500692840647,59.02291011235955,63.03317535545023,62.58419483568075,57.4468085106383,53.89344262295082,53.10734463276836,51.264755480607086,51.264755480607086,63.03317535545023,57.4741481401968,3.2070442454702506,10.28513279240385
NCL,6669,,,,,,,,,,,,,,,,,,,,100.0,100.0,100.0,100.0,100.0,100.0,100.0,100.0,0.0,0.0
NCL,6682,,,,,,,,,,,,,,,,,,,,,,,,,,,,,
NZL,6669,,,,,,,,,,,,,,,,,,,,,,,,,,,,,
NZL,6682,,,,,,,,,,,,,,,,,,,,,,,,,,,,,
NIC,6669,,,,,,,,,,,,,,99.87054946996466,99.87054981549815,99.87054981549815,99.87054981549815,99.87054981549815,99.87054981549815,99.87054981549815,99.87054981549815,99.87054981549815,100.0,99.87046632124353,99.87046632124353,100.0,99.88231039229032,0.03903323507941163,0.0015235934407646107
NIC,6682,,,,,,,,,,,,,,0.12953356890459364,0.1295350553505535,0.1295350553505535,0.1295350553505535,0.1295350553505535,0.1295350553505535,0.1295350553505535,0.1295350553505535,0.1295350553505535,,0.1295336787564767,0.12953356890459364,0.1295350553505535,0.12953476904654987,6.041369435242666e-07,3.649814465308429e-13
NER,6669,,,,,,,,,,,,,,,,,,,,,,,,,,,,,
NER,6682,,,,,,,,,,,,,,,,,,,,,,,,,,,,,
NGA,6669,,,,,,,,,,,,,,,,,,,,,,,,,,,,,
NGA,6682,,,,,,,,,,,,,,,,,,,,,,,,,,,,,
NIU,6669,,,,,,,,,,,,,,,,,,,,100.0,100.0,100.0,100.0,100.0,100.0,100.0,100.0,0.0,0.0
NIU,6682,,,,,,,,,,,,,,,,,,,,,,,,,,,,,
MKD,6669,,,,,,,,,,,,,,,,,,,100.0,100.0,100.0,100.0,100.0,100.0,100.0,100.0,100.0,0.0,0.0
MKD,6682,,,,,,,,,,,,,,,,,,,,,,,,,,,,,
NOR,6669,,,,,,,,,,83.2,80.86486486486487,82.35897435897435,82.85,81.85,80.7456240054558,80.85106382978724,81.67330677290836,81.47410358565736,80.59196617336151,80.90058733956928,81.43050541516247,80.79677708146822,81.13553113553114,81.14655792756056,80.59196617336151,83.2,81.45799083268675,0.7978364038878546,0.6365429273687038
NOR,6682,,,,,,,,,,17.142857142857142,18.91891891891892,17.94871794871795,17.5,19.0,19.254375994544215,19.361702127659573,18.32669322709163,18.32669322709163,19.323467230443974,17.881226887100286,18.546931407942242,19.22560429722471,18.88736263736264,18.853442072439435,17.142857142857142,19.361702127659573,18.566532874626287,0.693911286362961,0.48151287334189924
OMN,6669,,,,,,,,,,,,,,,,,,,,,,,,,,,,,
OMN,6682,,,,,,,,,,,,,,,,,,,,,,,,,,,,,
PAK,6669,,,,,,,,,,,,,,,,,,,,,100.0,100.0,100.0,100.0,100.0,100.0,100.0,0.0,0.0
PAK,6682,,,,,,,,,,,,,,,,,,,,,,,,,,,,,
PSE,6669,,,,,,,,,,,,,,,,,,,,100.0,100.0,100.0,100.0,,100.0,100.0,100.0,0.0,0.0
PSE,6682,,,,,,,,,,,,,,,,,,,,,,,,,,,,,
PAN,6669,,,,,,,,,,,,,,,,,,,,,,,,,,,,,
PAN,6682,,,,,,,,,,,,,,,,,,,,,,,,,,,,,
PNG,6669,,,,,,,,,,,,,,,,,100.0,,,,100.0,100.0,100.0,99.99999999999999,99.99999999999999,100.0,100.0,0.0,5.048709793414476e-29
PNG,6682,,,,,,,,,,,,,,,,,,,,,,,,,,,,,
PRY,6669,,,,,,,,,,,,,100.0,100.0,100.0,100.0,100.0,100.0,100.0,100.0,,,100.0,,100.0,100.0,100.0,0.0,0.0
PRY,6682,,,,,,,,,,,,,,,,,,,,,,,,,,,,,
PER,6669,,,,,,,,,,,,,99.96110935738444,99.96111010009098,99.96110933940777,99.96110942956925,99.96110986703988,99.96110939597314,99.96110974178404,99.96110965909092,99.961109569378,99.9611095890411,99.96110972972973,99.96110967072855,99.96110933940777,99.96111010009098,99.96110962076814,2.2566151159916329e-07,5.092311781721931e-14
PER,6682,,,,,,,,,,,,,0.03889064261555806,0.03888989990900819,0.03889066059225513,0.03889057043073341,0.03889013296011196,0.03889060402684564,0.03889025821596243,0.03889034090909091,0.038890430622009566,0.03889041095890411,0.03889027027027027,0.0388903292714545,0.03888989990900819,0.03889066059225513,0.03889037923185035,2.2566151528965934e-07,5.092311948282516e-14
PHL,6669,,,,,,,,,,,,,,,,,,,,,,,,,,,,,
PHL,6682,,,,,,,,,,,,,,,,,,,,,,,,,,,,,
POL,6669,,,,,,,,,,,,,,,,,,,67.3427991479002,67.62007553956835,34.624845387527394,44.41809097238339,75.15657620041753,78.404401540154,34.624845387527394,78.404401540154,61.26113146465847,17.649802796917125,311.51553877006353
POL,6682,,,,,,,,,,,100.0,100.0,100.0,100.0,100.0,100.0,100.0,100.0,32.661662406167586,32.37598615107913,44.43988344291692,37.73614922255744,24.843423799582464,21.59094141914191,21.59094141914191,100.0,70.97486046010326,35.16252581696248,1236.403221828553
PRT,6669,,,,,,,,,,,,,,,,,,,28.26694024122807,28.48230197183099,27.84611572890025,37.07431627489912,37.929185863632156,40.04096262160778,27.84611572890025,40.04096262160778,33.27330378368306,5.6462002180171,31.87957690193635
PRT,6682,,,,,,,,,,,,,,,,,,,71.73227028508772,71.51830591549296,72.15409079283887,62.92571574969577,62.07107040429271,59.95903737839221,59.95903737839221,72.15409079283887,66.7267484209667,5.646156524501576,31.879083499171713
PRI,6669,,,,,,,,,,,,,,,,,,,,,,,,,,,,,
PRI,6682,,,,,,,,,,,,,,,,,,,,,,,,,,,,,
QAT,6669,,,,,,,,,,,,,,,,,,,,,,,,,,,,,
QAT,6682,,,,,,,,,,,,,,,,,,,,,,,,,,,,,
KOR,6669,,,,,,,,,,,,,,,,,,,,,,,,,,,,,
KOR,6682,,,,,,,,,,,,,,,,,,,,,,,,,,,,,
MDA,6669,,,,,,,,,,,,,,,100.0,100.0,,,,,,100.0,100.0,100.0,100.0,100.0,100.0,0.0,0.0
MDA,6682,,,,,,,,,,,,,,,,,,,,,,,,,,,,,
REU,6669,,,,,,,,,,,,,,,,,,,,,,,,,,,,,
REU,6682,,,,,,,,,,,,,,,,,,,,,,,,,,,,,
ROU,6669,,,,,,,,,,,,52.45398773006136,42.62295081967213,56.70391061452514,65.43504171632895,78.3132530120482,77.12215320910974,88.26382153249273,74.03314917127071,65.03937007874016,66.11617312072893,70.85561497326204,77.93427230046949,83.33333333333334,42.62295081967213,88.26382153249273,69.09438704708022,12.89428702997828,166.26263801146607
ROU,6682,,,,,,,,,,,,47.54601226993865,57.377049180327866,43.296089385474865,34.56495828367103,21.686746987951807,22.87784679089027,12.415130940834143,25.966850828729278,34.96062992125984,33.88382687927107,29.144385026737968,22.132796780684107,16.666666666666668,12.415130940834143,57.377049180327866,30.96299922634135,12.807414140476666,164.02985696568166
RUS,6669,,,,,,,,,,,,,,,,,,,,,,,,,,,,,
RUS,6682,,,,,,,,,,,,,,,,,,,,,,,,,,,,,
RWA,6669,,,,,,,,,,,,,,,,,,,,,,,,,,,,,
RWA,6682,,,,,,,,,,,,,,,,,,,,,,,,,,,,,
KNA,6669,,,,,,,,,,,,,,,,,,,,,,,,,,,,,
KNA,6682,,,,,,,,,,,,,,,,,,,,,,,,,,,,,
LCA,6669,,,,,,,,,,,,,,,,,,,,,,,,,,,,,
LCA,6682,,,,,,,,,,,,,,,,,,,,,,,,,,,,,
VCT,6669,,,,,,,,,,,,,,,,,,,,,,,,,,,,,
VCT,6682,,,,,,,,,,,,,,,,,,,,,,,,,,,,,
WSM,6669,,,,,,,,,,,,,,,,,,,,,,,,,,,,,
WSM,6682,,,,,,,,,,,,,,,,,,,,,,,,,,,,,
STP,6669,,,,,,,,,,,,,,,100.0,100.0,,,,100.0,100.0,100.0,100.0,100.0,100.0,100.0,100.0,0.0,0.0
STP,6682,,,,,,,,,,,,,,,,,,,,,,,,,,,,,
SAU,6669,,,,,,,,,,,,,,,100.0,100.0,100.0,100.0,100.0,100.0,100.0,100.0,100.0,100.0,100.0,100.0,100.0,0.0,0.0
SAU,6682,,,,,,,,,,,,,,,,,,,,,,,,,,,,,
SEN,6669,,,,,,,,,,,,,100.0,,,,,,100.0,100.0,100.0,100.0,100.0,100.0,100.0,100.0,100.0,0.0,0.0
SEN,6682,,,,,,,,,,,,,,,,,,,,,,,,,,,,,
SRB,6669,,,,,,,,,,,,,,,,51.42857142857143,,99.7229916897507,79.62382445141066,78.15845824411134,85.52631578947368,91.2043301759134,92.29747675962815,71.85770750988142,51.42857142857143,99.7229916897507,81.2274595060926,14.978100698398631,224.34350053136956
SRB,6682,,,,,,,,,,,,,,,,48.57142857142857,,0.2770083102493075,20.37617554858934,21.841541755888652,14.473684210526319,8.795669824086604,7.702523240371844,28.142292490118578,0.2770083102493075,48.57142857142857,18.7725404939074,14.978100698398631,224.34350053136953
SYC,6669,,,,,,,,,,,,,,,,,,,,,,,,,,,,,
SYC,6682,,,,,,,,,,,,,,,,,,,,,,,,,,,,,
SLE,6669,,,,,,,,,,,,,,,,,,,,,100.0,100.0,100.0,100.0,100.0,100.0,100.0,0.0,0.0
SLE,6682,,,,,,,,,,,,,,,,,,,,,,,,,,,,,
SGP,6669,,,,,,,,,,,,,,,,,,,,,,,,,,,,,
SGP,6682,,,,,,,,,,,,,,,,,,,,,,,,,,,,,
SVK,6669,,,,,,,,,,,,,,31.90443059239611,31.90443049327354,30.119453924914673,31.699604743083004,31.904430656934306,31.904430451127823,32.74689463220676,31.096715517241382,32.16830023268887,33.00487031373881,32.49571673329526,30.119453924914673,33.00487031373881,31.904479844627325,0.7886988445610364,0.6220458674119139
SVK,6682,,,,,,,,,,,,,,68.09514058355437,68.09514080717489,69.88054607508533,68.300395256917,68.09514030819142,68.09514097744362,67.24639098740889,68.90990158045977,67.82859440265848,66.99512968626118,67.50428326670475,66.99512968626118,69.88054607508533,68.09507308471451,0.7902023012263046,0.6244196768633475
SVN,6669,,,,,,,,,,,6.25,5.0,11.016949152542372,10.852713178294573,12.355212355212355,13.545816733067728,13.503649635036497,13.541666666666666,15.282392026578071,15.175909361955874,16.34349030470914,16.694169416941694,17.199504337050804,18.266922707633224,5.0,18.266922707633224,13.216313991120643,3.911103535041692,15.29673086181562
SVN,6682,,,,,,,,,,100.0,93.75,95.0,88.98305084745762,89.14728682170542,87.64478764478766,86.45418326693226,86.86131386861314,86.80555555555556,85.04983388704319,84.79427549194992,83.65650969529085,83.30583058305831,82.80049566294917,81.73307729236677,81.73307729236677,100.0,87.732413374514,5.061765612667255,25.62147111758071
SLB,6669,,,,,,,,,,,,,,,,100.0,,,,100.0,100.0,100.0,100.0,100.0,100.0,100.0,100.0,0.0,0.0
SLB,6682,,,,,,,,,,,,,,,,,,,,,,,,,,,,,
SOM,6669,,,,,,,,,,,,,,,,,,,,,,,,,,,,,
SOM,6682,,,,,,,,,,,,,,,,,,,,,,,,,,,,,
ZAF,6669,,,,,,,,,,,,,,,,,,,,,,,,,,,,,
ZAF,6682,,,,,,,,,,,,,,,,,,,,,,,,,,,,,
SSD,6669,,,,,,,,,,,,,,,,,,,,,,,,,,,,,
SSD,6682,,,,,,,,,,,,,,,,,,,,,,,,,,,,,
ESP,6669,,,,,,,,,,,,,,,,,,41.773355768527324,52.34974305503835,50.04830917874396,49.39383197447714,46.1981953662492,44.58755383929898,46.208983686752475,41.773355768527324,52.34974305503835,47.222853267012496,3.598634693765669,12.95017165917393
ESP,6682,,,,,,,,,,,,,,,,,,58.22664423147267,47.65025694496164,49.95169082125604,50.6132577100319,53.802054681974376,55.41244616070102,53.7914308811641,47.65025694496164,58.22664423147267,52.77825449022311,3.5979540903669447,12.945273636388228
LKA,6669,,,,,,,,,,,,,,,,,,,,,,,,,,,,,
LKA,6682,,,,,,,,,,,,,,,,,,,,,,,,,,,,,
SUR,6669,,,,,,,,,,,,,,,,,,,,100.0,100.0,100.0,100.0,100.0,100.0,100.0,100.0,0.0,0.0
SUR,6682,,,,,,,,,,,,,,,,,,,,,,,,,,,,,
SWE,6669,,,,,,,,,,,77.58152791625125,77.58152806756085,77.58152815699658,77.58152757502027,77.10604557463671,76.89969590288317,77.98807365145228,77.60772303344325,78.0577883988703,77.92821835375027,77.10300428724545,78.03639441388066,77.5469033884631,77.53960857409133,76.89969590288317,78.0577883988703,77.58139766389611,0.35548520722315774,0.12636973255449138
SWE,6682,,,,,,,,,,,22.4139037886341,22.413904123199202,22.41390358361775,22.413903892944038,22.88812417437252,23.073338391502276,22.016378112033195,22.396369524258123,21.942211601129696,22.071781646249732,22.87806902465166,21.96360558611934,22.44958471157725,22.460391425908668,21.942211601129696,23.073338391502276,22.413962113299824,0.3485427004332047,0.12148201402527065
CHE,6669,,,,,,,,,,,,,,,,,,,,,,,,,,,,,
CHE,6682,,,,,,,,,,,,,,,,,,,,,,,,,,,,,
SYR,6669,,,,,,,,,,,,,,,,,,,,,,,,,,,,,
SYR,6682,,,,,,,,,,,,,,,,,,,,,,,,,,,,,
TJK,6669,,,,,,,,,,,,,,,,,,,,,,,,,,,,,
TJK,6682,,,,,,,,,,,,,,,,,,,,,,,,,,,,,
THA,6669,,,,,,,,,,,,,,,,,,,,,,,,,,,,,
THA,6682,,,,,,,,,,,,,,,,,,,,,,,,,,,,,
TLS,6669,,,,,,,,,,,,,,,,,,,,,100.0,100.0,100.0,,100.0,100.0,100.0,0.0,0.0
TLS,6682,,,,,,,,,,,,,,,,,,,,,,,,,,,,,
TGO,6669,,,,,,,,,,,,,,,,,,,,,,,,,,,,,
TGO,6682,,,,,,,,,,,,,,,,,,,,,,,,,,,,,
TKL,6669,,,,,,,,,,,,,,,,,,,,,,,,,,,,,
TKL,6682,,,,,,,,,,,,,,,,,,,,,,,,,,,,,
TON,6669,,,,,,,,,,,,,,,,,,,,100.0,100.0,100.0,100.0,100.0,100.0,100.0,100.0,0.0,0.0
TON,6682,,,,,,,,,,,,,,,,,,,,,,,,,,,,,
TTO,6669,,,,,,,,,,,,,,,,,,,,,,,,,,,,,
TTO,6682,,,,,,,,,,,,,,,,,,,,,,,,,,,,,
TUN,6669,,,,,,,,,,,,,,,,,,,,,,,,,,,,,
TUN,6682,,,,,,,,,,,,,,,,,,,,,,,,,,,,,
TUR,6669,,,,,,,,,,,,,,,,,,,,,,,,,,,,,
TUR,6682,,,,,,,,,,,,,,,,,,,,,,,,,,,,,
TKM,6669,,,,,,,,,,,,,,,,,,,,,,,,,,,,,
TKM,6682,,,,,,,,,,,,,,,,,,,,,,,,,,,,,
TUV,6669,,,,,,,,,,,,,,,,,,,,,,,,,,,,,
TUV,6682,,,,,,,,,,,,,,,,,,,,,,,,,,,,,
UGA,6669,,,,,,,,,,,,,,,,,,,,,,,,100.0,100.0,100.0,100.0,0.0,
UGA,6682,,,,,,,,,,,,,,,,,,,,,,,,,,,,,
UKR,6669,,,,,,,,,,,,,,,,,,,,,,,,,,,,,
UKR,6682,,,,,,,,,,,,,,,,,,,,,,,,,,,,,
ARE,6669,,,,,,,,,,,,,,,,,,,,,,,,,,,,,
ARE,6682,,,,,,,,,,,,,,,,,,,,,,,,,,,,,
GBR,6669,,,,,,,,,,23.612018288700195,27.364607170099163,28.4109477124183,29.986325454190272,30.994455994455993,31.86541316180109,31.831462401968324,32.03112067538487,31.26119670369043,30.68288119738073,31.294465024946422,32.06244756818693,32.037468256698034,32.88718839909893,28.018363572626455,23.612018288700195,32.88718839909893,30.28935743877641,2.4693791714094155,6.097833492190651
GBR,6682,,,,,,,,,,76.3879817112998,72.63539282990084,71.5890522875817,70.01367454580974,69.005544005544,68.11809335312552,68.12240504382594,68.03509352756166,68.72088857040487,69.29840972871843,68.69598582790816,67.93116853886603,67.96138381877078,67.11281160090107,71.98163642737354,67.11281160090107,76.3879817112998,69.70730145450612,2.4703397130067937,6.102578297658488
TZA,6669,,,,,,,,,,,,,,,,,,,,,,,,,,,,,
TZA,6682,,,,,,,,,,,,,,,,,,,,,,,,,,,,,
USA,6669,,,,,,,,,,,,,,,,,,,,,,,,,,,,,
USA,6682,,,,,,,,,,,,,,,,,,,,,,,,,,,,,
URY,6669,,,,,,,,,,,,,,,,,,,,,,,,,,,,,
URY,6682,,,,,,,,,,,,,100.0,100.0,100.0,100.0,100.0,100.0,100.0,,,100.0,100.0,100.0,100.0,100.0,100.0,0.0,0.0
UZB,6669,,,,,,,,,,,,,,,,,,,,,,,,,,,,,
UZB,6682,,,,,,,,,,,,,,,,,,,,,,,,,,,,,
VUT,6669,,,,,,,,,,,,,,,,,,,,84.78260784313726,84.78261052631578,84.78261111111111,84.78260869565217,84.78260852613438,84.78260784313726,84.78261111111111,84.78260934047015,1.401993047571656e-06,1.9655845054392598e-12
VUT,6682,,,,,,,,,,,,,,,,,,,,15.217392156862745,15.21738947368421,15.21738888888889,15.217391304347826,15.217391473865613,15.21738888888889,15.217392156862745,15.217390659529858,1.401993049882459e-06,1.965584511918719e-12
VEN,6669,,,,,,,,,,,,,,,,,,,,,,,,,,,,,
VEN,6682,,,,,,,,,,,,,,,,,,,,,,,,,,,,,
VNM,6669,,,,,,,,,,,,,,,,,,,,,,,,,,,,,
VNM,6682,,,,,,,,,,,,,,,,,,,,,,,,,,,,,
YEM,6669,,,,,,,,,,,,,,,,,,,,,,,,,,,,,
YEM,6682,,,,,,,,,,,,,,,,,,,,,,,,,,,,,
ZMB,6669,,,,,,,,,,,,,,,,,,,,,,,,,,,,,
ZMB,6682,,,,,,,,,,,,,,,,,,,,,,,,,,,,,
ZWE,6669,,,,,,,,,,,,,,,,,,,,,,,,,,,,,
ZWE,6682,,,,,,,,,,,,,,,,,,,,,,,,,,,,,
